cell_line,treatment_start_day,treatment,mouse_id,tumour_id,days,tumour_volume
HCT116,5,Control,1_black,1_black_right,5,81.5566875
HCT116,5,Control,1_black,1_black_right,7,143.163936
HCT116,5,Control,1_black,1_black_right,9,137.0592615
HCT116,5,Control,1_black,1_black_right,11,NaN
HCT116,5,Control,1_black,1_black_right,12,138.5893465
HCT116,5,Control,1_black,1_black_right,13,NaN
HCT116,5,Control,1_black,1_black_right,14,211.163103
HCT116,5,Control,1_black,1_black_right,15,NaN
HCT116,5,Control,1_black,1_black_right,16,224.579544
HCT116,5,Control,1_black,1_black_right,18,NaN
HCT116,5,Control,1_black,1_black_right,19,330.74
HCT116,5,Control,1_black,1_black_right,20,NaN
HCT116,5,Control,1_black,1_black_right,21,300.023672
HCT116,5,Control,1_black,1_black_right,22,NaN
HCT116,5,Control,1_black,1_black_right,23,262.360982
HCT116,5,Control,1_black,1_black_right,25,NaN
HCT116,5,Control,1_black,1_black_right,27,NaN
HCT116,5,Control,1_black,1_black_left,5,55.7927295
HCT116,5,Control,1_black,1_black_left,7,76.20608
HCT116,5,Control,1_black,1_black_left,9,65.9374625
HCT116,5,Control,1_black,1_black_left,11,NaN
HCT116,5,Control,1_black,1_black_left,12,89.102268
HCT116,5,Control,1_black,1_black_left,13,NaN
HCT116,5,Control,1_black,1_black_left,14,210.307392
HCT116,5,Control,1_black,1_black_left,15,NaN
HCT116,5,Control,1_black,1_black_left,16,280.2723445
HCT116,5,Control,1_black,1_black_left,18,NaN
HCT116,5,Control,1_black,1_black_left,19,451.94
HCT116,5,Control,1_black,1_black_left,20,NaN
HCT116,5,Control,1_black,1_black_left,21,431.533442
HCT116,5,Control,1_black,1_black_left,22,NaN
HCT116,5,Control,1_black,1_black_left,23,501.599664
HCT116,5,Control,1_black,1_black_left,25,NaN
HCT116,5,Control,1_black,1_black_left,27,NaN
HCT116,5,Control,2_red,2_red_right,5,87.68547
HCT116,5,Control,2_red,2_red_right,7,63.728322
HCT116,5,Control,2_red,2_red_right,9,114.450084
HCT116,5,Control,2_red,2_red_right,11,NaN
HCT116,5,Control,2_red,2_red_right,12,73.414384
HCT116,5,Control,2_red,2_red_right,13,NaN
HCT116,5,Control,2_red,2_red_right,14,172.42544
HCT116,5,Control,2_red,2_red_right,15,NaN
HCT116,5,Control,2_red,2_red_right,16,171.837626
HCT116,5,Control,2_red,2_red_right,18,NaN
HCT116,5,Control,2_red,2_red_right,19,176.78
HCT116,5,Control,2_red,2_red_right,20,NaN
HCT116,5,Control,2_red,2_red_right,21,188.37405
HCT116,5,Control,2_red,2_red_right,22,NaN
HCT116,5,Control,2_red,2_red_right,23,170.604792
HCT116,5,Control,2_red,2_red_right,25,NaN
HCT116,5,Control,2_red,2_red_right,27,NaN
HCT116,5,Control,2_red,2_red_left,5,85.640625
HCT116,5,Control,2_red,2_red_left,7,143.48176
HCT116,5,Control,2_red,2_red_left,9,160.318656
HCT116,5,Control,2_red,2_red_left,11,NaN
HCT116,5,Control,2_red,2_red_left,12,130.923936
HCT116,5,Control,2_red,2_red_left,13,NaN
HCT116,5,Control,2_red,2_red_left,14,211.8474
HCT116,5,Control,2_red,2_red_left,15,NaN
HCT116,5,Control,2_red,2_red_left,16,262.849824
HCT116,5,Control,2_red,2_red_left,18,NaN
HCT116,5,Control,2_red,2_red_left,19,254.68
HCT116,5,Control,2_red,2_red_left,20,NaN
HCT116,5,Control,2_red,2_red_left,21,257.776576
HCT116,5,Control,2_red,2_red_left,22,NaN
HCT116,5,Control,2_red,2_red_left,23,248.819698
HCT116,5,Control,2_red,2_red_left,25,NaN
HCT116,5,Control,2_red,2_red_left,27,NaN
HCT116,5,Control,3_blue,3_blue_right,5,67.4028
HCT116,5,Control,3_blue,3_blue_right,7,62.436
HCT116,5,Control,3_blue,3_blue_right,9,39.4112115
HCT116,5,Control,3_blue,3_blue_right,11,NaN
HCT116,5,Control,3_blue,3_blue_right,12,55.385694
HCT116,5,Control,3_blue,3_blue_right,13,NaN
HCT116,5,Control,3_blue,3_blue_right,14,77.688312
HCT116,5,Control,3_blue,3_blue_right,15,NaN
HCT116,5,Control,3_blue,3_blue_right,16,117.932808
HCT116,5,Control,3_blue,3_blue_right,18,NaN
HCT116,5,Control,3_blue,3_blue_right,19,189.13
HCT116,5,Control,3_blue,3_blue_right,20,NaN
HCT116,5,Control,3_blue,3_blue_right,21,172.52352
HCT116,5,Control,3_blue,3_blue_right,22,NaN
HCT116,5,Control,3_blue,3_blue_right,23,162.914672
HCT116,5,Control,3_blue,3_blue_right,25,NaN
HCT116,5,Control,3_blue,3_blue_right,27,NaN
HCT116,5,Control,3_blue,3_blue_left,5,110.67255
HCT116,5,Control,3_blue,3_blue_left,7,148.7230145
HCT116,5,Control,3_blue,3_blue_left,9,105.06528
HCT116,5,Control,3_blue,3_blue_left,11,NaN
HCT116,5,Control,3_blue,3_blue_left,12,79.354575
HCT116,5,Control,3_blue,3_blue_left,13,NaN
HCT116,5,Control,3_blue,3_blue_left,14,94.5042695
HCT116,5,Control,3_blue,3_blue_left,15,NaN
HCT116,5,Control,3_blue,3_blue_left,16,108.164608
HCT116,5,Control,3_blue,3_blue_left,18,NaN
HCT116,5,Control,3_blue,3_blue_left,19,207.87
HCT116,5,Control,3_blue,3_blue_left,20,NaN
HCT116,5,Control,3_blue,3_blue_left,21,254.837888
HCT116,5,Control,3_blue,3_blue_left,22,NaN
HCT116,5,Control,3_blue,3_blue_left,23,150.3792
HCT116,5,Control,3_blue,3_blue_left,25,NaN
HCT116,5,Control,3_blue,3_blue_left,27,NaN
HCT116,5,Control,4_black,4_black_right,5,169.395446
HCT116,5,Control,4_black,4_black_right,7,175.17129435
HCT116,5,Control,4_black,4_black_right,9,167.6496015
HCT116,5,Control,4_black,4_black_right,11,NaN
HCT116,5,Control,4_black,4_black_right,12,261.120748
HCT116,5,Control,4_black,4_black_right,13,NaN
HCT116,5,Control,4_black,4_black_right,14,395.185392
HCT116,5,Control,4_black,4_black_right,15,NaN
HCT116,5,Control,4_black,4_black_right,16,630.2990295
HCT116,5,Control,4_black,4_black_right,18,NaN
HCT116,5,Control,4_black,4_black_right,19,712.04
HCT116,5,Control,4_black,4_black_right,20,NaN
HCT116,5,Control,4_black,4_black_right,21,789.40855
HCT116,5,Control,4_black,4_black_right,22,NaN
HCT116,5,Control,4_black,4_black_right,23,830.894375
HCT116,5,Control,4_black,4_black_right,25,NaN
HCT116,5,Control,4_black,4_black_right,27,NaN
HCT116,5,Control,4_black,4_black_left,5,83.49208
HCT116,5,Control,4_black,4_black_left,7,83.8153085
HCT116,5,Control,4_black,4_black_left,9,73.295936
HCT116,5,Control,4_black,4_black_left,11,NaN
HCT116,5,Control,4_black,4_black_left,12,124.46343
HCT116,5,Control,4_black,4_black_left,13,NaN
HCT116,5,Control,4_black,4_black_left,14,173.7943875
HCT116,5,Control,4_black,4_black_left,15,NaN
HCT116,5,Control,4_black,4_black_left,16,237.089349
HCT116,5,Control,4_black,4_black_left,18,NaN
HCT116,5,Control,4_black,4_black_left,19,459.03
HCT116,5,Control,4_black,4_black_left,20,NaN
HCT116,5,Control,4_black,4_black_left,21,542.702336
HCT116,5,Control,4_black,4_black_left,22,NaN
HCT116,5,Control,4_black,4_black_left,23,430.0507625
HCT116,5,Control,4_black,4_black_left,25,NaN
HCT116,5,Control,4_black,4_black_left,27,NaN
HCT116,5,Control,5_blue,5_blue_right,5,61.162984
HCT116,5,Control,5_blue,5_blue_right,7,94.54635
HCT116,5,Control,5_blue,5_blue_right,9,99.7786095
HCT116,5,Control,5_blue,5_blue_right,11,NaN
HCT116,5,Control,5_blue,5_blue_right,12,150.822144
HCT116,5,Control,5_blue,5_blue_right,13,NaN
HCT116,5,Control,5_blue,5_blue_right,14,219.073327
HCT116,5,Control,5_blue,5_blue_right,15,NaN
HCT116,5,Control,5_blue,5_blue_right,16,312.149782
HCT116,5,Control,5_blue,5_blue_right,18,NaN
HCT116,5,Control,5_blue,5_blue_right,19,469.74
HCT116,5,Control,5_blue,5_blue_right,20,NaN
HCT116,5,Control,5_blue,5_blue_right,21,501.813998
HCT116,5,Control,5_blue,5_blue_right,22,NaN
HCT116,5,Control,5_blue,5_blue_right,23,489.40416
HCT116,5,Control,5_blue,5_blue_right,25,NaN
HCT116,5,Control,5_blue,5_blue_right,27,NaN
HCT116,5,Control,5_blue,5_blue_left,5,75.183872
HCT116,5,Control,5_blue,5_blue_left,7,88.3584
HCT116,5,Control,5_blue,5_blue_left,9,97.514802
HCT116,5,Control,5_blue,5_blue_left,11,NaN
HCT116,5,Control,5_blue,5_blue_left,12,119.284494
HCT116,5,Control,5_blue,5_blue_left,13,NaN
HCT116,5,Control,5_blue,5_blue_left,14,412.7886
HCT116,5,Control,5_blue,5_blue_left,15,NaN
HCT116,5,Control,5_blue,5_blue_left,16,450.0846
HCT116,5,Control,5_blue,5_blue_left,18,NaN
HCT116,5,Control,5_blue,5_blue_left,19,566.63
HCT116,5,Control,5_blue,5_blue_left,20,NaN
HCT116,5,Control,5_blue,5_blue_left,21,629.3648565
HCT116,5,Control,5_blue,5_blue_left,22,NaN
HCT116,5,Control,5_blue,5_blue_left,23,693.0712415
HCT116,5,Control,5_blue,5_blue_left,25,NaN
HCT116,5,Control,5_blue,5_blue_left,27,NaN
HCT116,5,TL32711,6_black,6_black_right,5,66.628648
HCT116,5,TL32711,6_black,6_black_right,7,115.014651
HCT116,5,TL32711,6_black,6_black_right,9,129.899382
HCT116,5,TL32711,6_black,6_black_right,11,NaN
HCT116,5,TL32711,6_black,6_black_right,12,198.980093
HCT116,5,TL32711,6_black,6_black_right,13,NaN
HCT116,5,TL32711,6_black,6_black_right,14,203.81255
HCT116,5,TL32711,6_black,6_black_right,15,NaN
HCT116,5,TL32711,6_black,6_black_right,16,238.7950565
HCT116,5,TL32711,6_black,6_black_right,18,NaN
HCT116,5,TL32711,6_black,6_black_right,19,313.8
HCT116,5,TL32711,6_black,6_black_right,20,NaN
HCT116,5,TL32711,6_black,6_black_right,21,300.300046
HCT116,5,TL32711,6_black,6_black_right,22,NaN
HCT116,5,TL32711,6_black,6_black_right,23,395.531136
HCT116,5,TL32711,6_black,6_black_right,25,NaN
HCT116,5,TL32711,6_black,6_black_right,27,NaN
HCT116,5,TL32711,6_black,6_black_left,5,102.6168
HCT116,5,TL32711,6_black,6_black_left,7,131.6088465
HCT116,5,TL32711,6_black,6_black_left,9,148.805362
HCT116,5,TL32711,6_black,6_black_left,11,NaN
HCT116,5,TL32711,6_black,6_black_left,12,235.90755
HCT116,5,TL32711,6_black,6_black_left,13,NaN
HCT116,5,TL32711,6_black,6_black_left,14,183.721806
HCT116,5,TL32711,6_black,6_black_left,15,NaN
HCT116,5,TL32711,6_black,6_black_left,16,142.480044
HCT116,5,TL32711,6_black,6_black_left,18,NaN
HCT116,5,TL32711,6_black,6_black_left,19,388.78
HCT116,5,TL32711,6_black,6_black_left,20,NaN
HCT116,5,TL32711,6_black,6_black_left,21,423.6840765
HCT116,5,TL32711,6_black,6_black_left,22,NaN
HCT116,5,TL32711,6_black,6_black_left,23,504.534573
HCT116,5,TL32711,6_black,6_black_left,25,NaN
HCT116,5,TL32711,6_black,6_black_left,27,NaN
HCT116,5,TL32711,7_red,7_red_right,5,129.0778335
HCT116,5,TL32711,7_red,7_red_right,7,169.7265625
HCT116,5,TL32711,7_red,7_red_right,9,185.2208465
HCT116,5,TL32711,7_red,7_red_right,11,NaN
HCT116,5,TL32711,7_red,7_red_right,12,173.3242115
HCT116,5,TL32711,7_red,7_red_right,13,NaN
HCT116,5,TL32711,7_red,7_red_right,14,204.793344
HCT116,5,TL32711,7_red,7_red_right,15,NaN
HCT116,5,TL32711,7_red,7_red_right,16,280.1672875
HCT116,5,TL32711,7_red,7_red_right,18,NaN
HCT116,5,TL32711,7_red,7_red_right,19,382.13
HCT116,5,TL32711,7_red,7_red_right,20,NaN
HCT116,5,TL32711,7_red,7_red_right,21,471.92544
HCT116,5,TL32711,7_red,7_red_right,22,NaN
HCT116,5,TL32711,7_red,7_red_right,23,398.874592
HCT116,5,TL32711,7_red,7_red_right,25,NaN
HCT116,5,TL32711,7_red,7_red_right,27,NaN
HCT116,5,TL32711,7_red,7_red_left,5,47.920075
HCT116,5,TL32711,7_red,7_red_left,7,116.529256
HCT116,5,TL32711,7_red,7_red_left,9,89.2257
HCT116,5,TL32711,7_red,7_red_left,11,NaN
HCT116,5,TL32711,7_red,7_red_left,12,118.03038
HCT116,5,TL32711,7_red,7_red_left,13,NaN
HCT116,5,TL32711,7_red,7_red_left,14,160.4992625
HCT116,5,TL32711,7_red,7_red_left,15,NaN
HCT116,5,TL32711,7_red,7_red_left,16,120.65515
HCT116,5,TL32711,7_red,7_red_left,18,NaN
HCT116,5,TL32711,7_red,7_red_left,19,159.17
HCT116,5,TL32711,7_red,7_red_left,20,NaN
HCT116,5,TL32711,7_red,7_red_left,21,172.9748375
HCT116,5,TL32711,7_red,7_red_left,22,NaN
HCT116,5,TL32711,7_red,7_red_left,23,197.234408
HCT116,5,TL32711,7_red,7_red_left,25,NaN
HCT116,5,TL32711,7_red,7_red_left,27,NaN
HCT116,5,TL32711,8_blue,8_blue_right,5,92.638016
HCT116,5,TL32711,8_blue,8_blue_right,7,75.4715625
HCT116,5,TL32711,8_blue,8_blue_right,9,114.7978125
HCT116,5,TL32711,8_blue,8_blue_right,11,NaN
HCT116,5,TL32711,8_blue,8_blue_right,12,259.3631975
HCT116,5,TL32711,8_blue,8_blue_right,13,NaN
HCT116,5,TL32711,8_blue,8_blue_right,14,405.575664
HCT116,5,TL32711,8_blue,8_blue_right,15,NaN
HCT116,5,TL32711,8_blue,8_blue_right,16,648.548512
HCT116,5,TL32711,8_blue,8_blue_right,18,NaN
HCT116,5,TL32711,8_blue,8_blue_right,19,534.48
HCT116,5,TL32711,8_blue,8_blue_right,20,NaN
HCT116,5,TL32711,8_blue,8_blue_right,21,770.735286
HCT116,5,TL32711,8_blue,8_blue_right,22,NaN
HCT116,5,TL32711,8_blue,8_blue_right,23,1285.602736
HCT116,5,TL32711,8_blue,8_blue_right,25,NaN
HCT116,5,TL32711,8_blue,8_blue_right,27,NaN
HCT116,5,TL32711,8_blue,8_blue_left,5,60.072632
HCT116,5,TL32711,8_blue,8_blue_left,7,66.389632
HCT116,5,TL32711,8_blue,8_blue_left,9,85.2828425
HCT116,5,TL32711,8_blue,8_blue_left,11,NaN
HCT116,5,TL32711,8_blue,8_blue_left,12,228.519536
HCT116,5,TL32711,8_blue,8_blue_left,13,NaN
HCT116,5,TL32711,8_blue,8_blue_left,14,184.676271
HCT116,5,TL32711,8_blue,8_blue_left,15,NaN
HCT116,5,TL32711,8_blue,8_blue_left,16,229.9608
HCT116,5,TL32711,8_blue,8_blue_left,18,NaN
HCT116,5,TL32711,8_blue,8_blue_left,19,289.65
HCT116,5,TL32711,8_blue,8_blue_left,20,NaN
HCT116,5,TL32711,8_blue,8_blue_left,21,350.1902
HCT116,5,TL32711,8_blue,8_blue_left,22,NaN
HCT116,5,TL32711,8_blue,8_blue_left,23,391.128192
HCT116,5,TL32711,8_blue,8_blue_left,25,NaN
HCT116,5,TL32711,8_blue,8_blue_left,27,NaN
HCT116,5,TL32711,9_black,9_black_right,5,171.2767315
HCT116,5,TL32711,9_black,9_black_right,7,94.7436815
HCT116,5,TL32711,9_black,9_black_right,9,111.966698
HCT116,5,TL32711,9_black,9_black_right,11,NaN
HCT116,5,TL32711,9_black,9_black_right,12,159.829384
HCT116,5,TL32711,9_black,9_black_right,13,NaN
HCT116,5,TL32711,9_black,9_black_right,14,183.789844
HCT116,5,TL32711,9_black,9_black_right,15,NaN
HCT116,5,TL32711,9_black,9_black_right,16,187.522452
HCT116,5,TL32711,9_black,9_black_right,18,NaN
HCT116,5,TL32711,9_black,9_black_right,19,241.24
HCT116,5,TL32711,9_black,9_black_right,20,NaN
HCT116,5,TL32711,9_black,9_black_right,21,352.914944
HCT116,5,TL32711,9_black,9_black_right,22,NaN
HCT116,5,TL32711,9_black,9_black_right,23,489.703158
HCT116,5,TL32711,9_black,9_black_right,25,NaN
HCT116,5,TL32711,9_black,9_black_right,27,NaN
HCT116,5,TL32711,9_black,9_black_left,5,105.36516
HCT116,5,TL32711,9_black,9_black_left,7,37.1124
HCT116,5,TL32711,9_black,9_black_left,9,76.984344
HCT116,5,TL32711,9_black,9_black_left,11,NaN
HCT116,5,TL32711,9_black,9_black_left,12,60.6385105
HCT116,5,TL32711,9_black,9_black_left,13,NaN
HCT116,5,TL32711,9_black,9_black_left,14,70.862724
HCT116,5,TL32711,9_black,9_black_left,15,NaN
HCT116,5,TL32711,9_black,9_black_left,16,75.4319
HCT116,5,TL32711,9_black,9_black_left,18,NaN
HCT116,5,TL32711,9_black,9_black_left,19,117.91
HCT116,5,TL32711,9_black,9_black_left,20,NaN
HCT116,5,TL32711,9_black,9_black_left,21,265.794986
HCT116,5,TL32711,9_black,9_black_left,22,NaN
HCT116,5,TL32711,9_black,9_black_left,23,339.9628725
HCT116,5,TL32711,9_black,9_black_left,25,NaN
HCT116,5,TL32711,9_black,9_black_left,27,NaN
HCT116,5,TL32711,10_blue,10_blue_right,5,118.093152
HCT116,5,TL32711,10_blue,10_blue_right,7,150.3930375
HCT116,5,TL32711,10_blue,10_blue_right,9,129.5420625
HCT116,5,TL32711,10_blue,10_blue_right,11,NaN
HCT116,5,TL32711,10_blue,10_blue_right,12,167.93604
HCT116,5,TL32711,10_blue,10_blue_right,13,NaN
HCT116,5,TL32711,10_blue,10_blue_right,14,256.6404
HCT116,5,TL32711,10_blue,10_blue_right,15,NaN
HCT116,5,TL32711,10_blue,10_blue_right,16,217.536586
HCT116,5,TL32711,10_blue,10_blue_right,18,NaN
HCT116,5,TL32711,10_blue,10_blue_right,19,413.08
HCT116,5,TL32711,10_blue,10_blue_right,20,NaN
HCT116,5,TL32711,10_blue,10_blue_right,21,482.154696
HCT116,5,TL32711,10_blue,10_blue_right,22,NaN
HCT116,5,TL32711,10_blue,10_blue_right,23,591.533292
HCT116,5,TL32711,10_blue,10_blue_right,25,NaN
HCT116,5,TL32711,10_blue,10_blue_right,27,NaN
HCT116,5,TL32711,10_blue,10_blue_left,5,171.347022
HCT116,5,TL32711,10_blue,10_blue_left,7,120.2920875
HCT116,5,TL32711,10_blue,10_blue_left,9,127.935619
HCT116,5,TL32711,10_blue,10_blue_left,11,NaN
HCT116,5,TL32711,10_blue,10_blue_left,12,235.806736
HCT116,5,TL32711,10_blue,10_blue_left,13,NaN
HCT116,5,TL32711,10_blue,10_blue_left,14,127.00863
HCT116,5,TL32711,10_blue,10_blue_left,15,NaN
HCT116,5,TL32711,10_blue,10_blue_left,16,277.93125
HCT116,5,TL32711,10_blue,10_blue_left,18,NaN
HCT116,5,TL32711,10_blue,10_blue_left,19,338.83
HCT116,5,TL32711,10_blue,10_blue_left,20,NaN
HCT116,5,TL32711,10_blue,10_blue_left,21,309.786624
HCT116,5,TL32711,10_blue,10_blue_left,22,NaN
HCT116,5,TL32711,10_blue,10_blue_left,23,481.705094
HCT116,5,TL32711,10_blue,10_blue_left,25,NaN
HCT116,5,TL32711,10_blue,10_blue_left,27,NaN
HCT116,5,5FU + Oxali,11_black,11_black_right,5,134.9971065
HCT116,5,5FU + Oxali,11_black,11_black_right,7,124.898328
HCT116,5,5FU + Oxali,11_black,11_black_right,9,155.070464
HCT116,5,5FU + Oxali,11_black,11_black_right,11,NaN
HCT116,5,5FU + Oxali,11_black,11_black_right,12,161.577252
HCT116,5,5FU + Oxali,11_black,11_black_right,13,NaN
HCT116,5,5FU + Oxali,11_black,11_black_right,14,182.37804
HCT116,5,5FU + Oxali,11_black,11_black_right,15,NaN
HCT116,5,5FU + Oxali,11_black,11_black_right,16,166.279536
HCT116,5,5FU + Oxali,11_black,11_black_right,18,NaN
HCT116,5,5FU + Oxali,11_black,11_black_right,19,389.14
HCT116,5,5FU + Oxali,11_black,11_black_right,20,NaN
HCT116,5,5FU + Oxali,11_black,11_black_right,21,271.451352
HCT116,5,5FU + Oxali,11_black,11_black_right,22,NaN
HCT116,5,5FU + Oxali,11_black,11_black_right,23,421.4756655
HCT116,5,5FU + Oxali,11_black,11_black_right,25,NaN
HCT116,5,5FU + Oxali,11_black,11_black_right,27,NaN
HCT116,5,5FU + Oxali,11_black,11_black_left,5,120.679308
HCT116,5,5FU + Oxali,11_black,11_black_left,7,185.508936
HCT116,5,5FU + Oxali,11_black,11_black_left,9,289.158012
HCT116,5,5FU + Oxali,11_black,11_black_left,11,NaN
HCT116,5,5FU + Oxali,11_black,11_black_left,12,241.3522825
HCT116,5,5FU + Oxali,11_black,11_black_left,13,NaN
HCT116,5,5FU + Oxali,11_black,11_black_left,14,252.751542
HCT116,5,5FU + Oxali,11_black,11_black_left,15,NaN
HCT116,5,5FU + Oxali,11_black,11_black_left,16,342.748014
HCT116,5,5FU + Oxali,11_black,11_black_left,18,NaN
HCT116,5,5FU + Oxali,11_black,11_black_left,19,551.78
HCT116,5,5FU + Oxali,11_black,11_black_left,20,NaN
HCT116,5,5FU + Oxali,11_black,11_black_left,21,626.264325
HCT116,5,5FU + Oxali,11_black,11_black_left,22,NaN
HCT116,5,5FU + Oxali,11_black,11_black_left,23,519.77505
HCT116,5,5FU + Oxali,11_black,11_black_left,25,NaN
HCT116,5,5FU + Oxali,11_black,11_black_left,27,NaN
HCT116,5,5FU + Oxali,12_red,12_red_right,5,118.399088
HCT116,5,5FU + Oxali,12_red,12_red_right,7,194.861382
HCT116,5,5FU + Oxali,12_red,12_red_right,9,225.110722
HCT116,5,5FU + Oxali,12_red,12_red_right,11,NaN
HCT116,5,5FU + Oxali,12_red,12_red_right,12,261.671226
HCT116,5,5FU + Oxali,12_red,12_red_right,13,NaN
HCT116,5,5FU + Oxali,12_red,12_red_right,14,442.61825
HCT116,5,5FU + Oxali,12_red,12_red_right,15,NaN
HCT116,5,5FU + Oxali,12_red,12_red_right,16,423.055872
HCT116,5,5FU + Oxali,12_red,12_red_right,18,NaN
HCT116,5,5FU + Oxali,12_red,12_red_right,19,667.12
HCT116,5,5FU + Oxali,12_red,12_red_right,20,NaN
HCT116,5,5FU + Oxali,12_red,12_red_right,21,970.4387655
HCT116,5,5FU + Oxali,12_red,12_red_right,22,NaN
HCT116,5,5FU + Oxali,12_red,12_red_right,23,713.472907
HCT116,5,5FU + Oxali,12_red,12_red_right,25,NaN
HCT116,5,5FU + Oxali,12_red,12_red_right,27,NaN
HCT116,5,5FU + Oxali,12_red,12_red_left,5,112.751616
HCT116,5,5FU + Oxali,12_red,12_red_left,7,223.1692405
HCT116,5,5FU + Oxali,12_red,12_red_left,9,191.893244
HCT116,5,5FU + Oxali,12_red,12_red_left,11,NaN
HCT116,5,5FU + Oxali,12_red,12_red_left,12,359.676768
HCT116,5,5FU + Oxali,12_red,12_red_left,13,NaN
HCT116,5,5FU + Oxali,12_red,12_red_left,14,380.052918
HCT116,5,5FU + Oxali,12_red,12_red_left,15,NaN
HCT116,5,5FU + Oxali,12_red,12_red_left,16,453.2257465
HCT116,5,5FU + Oxali,12_red,12_red_left,18,NaN
HCT116,5,5FU + Oxali,12_red,12_red_left,19,393.41
HCT116,5,5FU + Oxali,12_red,12_red_left,20,NaN
HCT116,5,5FU + Oxali,12_red,12_red_left,21,438.9526
HCT116,5,5FU + Oxali,12_red,12_red_left,22,NaN
HCT116,5,5FU + Oxali,12_red,12_red_left,23,490.8298595
HCT116,5,5FU + Oxali,12_red,12_red_left,25,NaN
HCT116,5,5FU + Oxali,12_red,12_red_left,27,NaN
HCT116,5,5FU + Oxali,13_black,13_black_right,5,153.9884115
HCT116,5,5FU + Oxali,13_black,13_black_right,7,141.890468
HCT116,5,5FU + Oxali,13_black,13_black_right,9,157.8160665
HCT116,5,5FU + Oxali,13_black,13_black_right,11,NaN
HCT116,5,5FU + Oxali,13_black,13_black_right,12,297.2133
HCT116,5,5FU + Oxali,13_black,13_black_right,13,NaN
HCT116,5,5FU + Oxali,13_black,13_black_right,14,335.59515
HCT116,5,5FU + Oxali,13_black,13_black_right,15,NaN
HCT116,5,5FU + Oxali,13_black,13_black_right,16,458.3806875
HCT116,5,5FU + Oxali,13_black,13_black_right,18,NaN
HCT116,5,5FU + Oxali,13_black,13_black_right,19,515.42
HCT116,5,5FU + Oxali,13_black,13_black_right,20,NaN
HCT116,5,5FU + Oxali,13_black,13_black_right,21,517.7896
HCT116,5,5FU + Oxali,13_black,13_black_right,22,NaN
HCT116,5,5FU + Oxali,13_black,13_black_right,23,554.715702
HCT116,5,5FU + Oxali,13_black,13_black_right,25,NaN
HCT116,5,5FU + Oxali,13_black,13_black_right,27,NaN
HCT116,5,5FU + Oxali,13_black,13_black_left,5,129.968825
HCT116,5,5FU + Oxali,13_black,13_black_left,7,137.3990625
HCT116,5,5FU + Oxali,13_black,13_black_left,9,150.703011
HCT116,5,5FU + Oxali,13_black,13_black_left,11,NaN
HCT116,5,5FU + Oxali,13_black,13_black_left,12,192.8532515
HCT116,5,5FU + Oxali,13_black,13_black_left,13,NaN
HCT116,5,5FU + Oxali,13_black,13_black_left,14,285.7632
HCT116,5,5FU + Oxali,13_black,13_black_left,15,NaN
HCT116,5,5FU + Oxali,13_black,13_black_left,16,260.304638
HCT116,5,5FU + Oxali,13_black,13_black_left,18,NaN
HCT116,5,5FU + Oxali,13_black,13_black_left,19,352.36
HCT116,5,5FU + Oxali,13_black,13_black_left,20,NaN
HCT116,5,5FU + Oxali,13_black,13_black_left,21,497.159486
HCT116,5,5FU + Oxali,13_black,13_black_left,22,NaN
HCT116,5,5FU + Oxali,13_black,13_black_left,23,497.670318
HCT116,5,5FU + Oxali,13_black,13_black_left,25,NaN
HCT116,5,5FU + Oxali,13_black,13_black_left,27,NaN
HCT116,5,5FU + Oxali,14_red,14_red_right,5,188.153784
HCT116,5,5FU + Oxali,14_red,14_red_right,7,131.2009375
HCT116,5,5FU + Oxali,14_red,14_red_right,9,149.928867
HCT116,5,5FU + Oxali,14_red,14_red_right,11,NaN
HCT116,5,5FU + Oxali,14_red,14_red_right,12,185.17896
HCT116,5,5FU + Oxali,14_red,14_red_right,13,NaN
HCT116,5,5FU + Oxali,14_red,14_red_right,14,214.989876
HCT116,5,5FU + Oxali,14_red,14_red_right,15,NaN
HCT116,5,5FU + Oxali,14_red,14_red_right,16,242.240022
HCT116,5,5FU + Oxali,14_red,14_red_right,18,NaN
HCT116,5,5FU + Oxali,14_red,14_red_right,19,362.6
HCT116,5,5FU + Oxali,14_red,14_red_right,20,NaN
HCT116,5,5FU + Oxali,14_red,14_red_right,21,340.751488
HCT116,5,5FU + Oxali,14_red,14_red_right,22,NaN
HCT116,5,5FU + Oxali,14_red,14_red_right,23,523.096942
HCT116,5,5FU + Oxali,14_red,14_red_right,25,NaN
HCT116,5,5FU + Oxali,14_red,14_red_right,27,NaN
HCT116,5,5FU + Oxali,14_red,14_red_left,5,121.100364
HCT116,5,5FU + Oxali,14_red,14_red_left,7,169.237376
HCT116,5,5FU + Oxali,14_red,14_red_left,9,185.118318
HCT116,5,5FU + Oxali,14_red,14_red_left,11,NaN
HCT116,5,5FU + Oxali,14_red,14_red_left,12,257.528633
HCT116,5,5FU + Oxali,14_red,14_red_left,13,NaN
HCT116,5,5FU + Oxali,14_red,14_red_left,14,380.07225
HCT116,5,5FU + Oxali,14_red,14_red_left,15,NaN
HCT116,5,5FU + Oxali,14_red,14_red_left,16,454.50622
HCT116,5,5FU + Oxali,14_red,14_red_left,18,NaN
HCT116,5,5FU + Oxali,14_red,14_red_left,19,698.51
HCT116,5,5FU + Oxali,14_red,14_red_left,20,NaN
HCT116,5,5FU + Oxali,14_red,14_red_left,21,598.629096
HCT116,5,5FU + Oxali,14_red,14_red_left,22,NaN
HCT116,5,5FU + Oxali,14_red,14_red_left,23,595.3536
HCT116,5,5FU + Oxali,14_red,14_red_left,25,NaN
HCT116,5,5FU + Oxali,14_red,14_red_left,27,NaN
HCT116,5,5FU + Oxali,15_blue,15_blue_right,5,104.752926
HCT116,5,5FU + Oxali,15_blue,15_blue_right,7,64.3264
HCT116,5,5FU + Oxali,15_blue,15_blue_right,9,63.339453
HCT116,5,5FU + Oxali,15_blue,15_blue_right,11,NaN
HCT116,5,5FU + Oxali,15_blue,15_blue_right,12,69.596046
HCT116,5,5FU + Oxali,15_blue,15_blue_right,13,NaN
HCT116,5,5FU + Oxali,15_blue,15_blue_right,14,83.06217
HCT116,5,5FU + Oxali,15_blue,15_blue_right,15,NaN
HCT116,5,5FU + Oxali,15_blue,15_blue_right,16,51.2919
HCT116,5,5FU + Oxali,15_blue,15_blue_right,18,NaN
HCT116,5,5FU + Oxali,15_blue,15_blue_right,19,175.39
HCT116,5,5FU + Oxali,15_blue,15_blue_right,20,NaN
HCT116,5,5FU + Oxali,15_blue,15_blue_right,21,176.71996
HCT116,5,5FU + Oxali,15_blue,15_blue_right,22,NaN
HCT116,5,5FU + Oxali,15_blue,15_blue_right,23,249.7903435
HCT116,5,5FU + Oxali,15_blue,15_blue_right,25,NaN
HCT116,5,5FU + Oxali,15_blue,15_blue_right,27,NaN
HCT116,5,5FU + Oxali,15_blue,15_blue_left,5,221.6527365
HCT116,5,5FU + Oxali,15_blue,15_blue_left,7,103.8652875
HCT116,5,5FU + Oxali,15_blue,15_blue_left,9,111.182608
HCT116,5,5FU + Oxali,15_blue,15_blue_left,11,NaN
HCT116,5,5FU + Oxali,15_blue,15_blue_left,12,153.08194
HCT116,5,5FU + Oxali,15_blue,15_blue_left,13,NaN
HCT116,5,5FU + Oxali,15_blue,15_blue_left,14,188.746176
HCT116,5,5FU + Oxali,15_blue,15_blue_left,15,NaN
HCT116,5,5FU + Oxali,15_blue,15_blue_left,16,172.2872115
HCT116,5,5FU + Oxali,15_blue,15_blue_left,18,NaN
HCT116,5,5FU + Oxali,15_blue,15_blue_left,19,421.94
HCT116,5,5FU + Oxali,15_blue,15_blue_left,20,NaN
HCT116,5,5FU + Oxali,15_blue,15_blue_left,21,279.831552
HCT116,5,5FU + Oxali,15_blue,15_blue_left,22,NaN
HCT116,5,5FU + Oxali,15_blue,15_blue_left,23,320.9959125
HCT116,5,5FU + Oxali,15_blue,15_blue_left,25,NaN
HCT116,5,5FU + Oxali,15_blue,15_blue_left,27,NaN
HCT116,5,5FU + Oxali + TL32711,16_black,16_black_right,5,88.099637
HCT116,5,5FU + Oxali + TL32711,16_black,16_black_right,7,128.065536
HCT116,5,5FU + Oxali + TL32711,16_black,16_black_right,9,67.124808
HCT116,5,5FU + Oxali + TL32711,16_black,16_black_right,11,NaN
HCT116,5,5FU + Oxali + TL32711,16_black,16_black_right,12,63.688664
HCT116,5,5FU + Oxali + TL32711,16_black,16_black_right,13,NaN
HCT116,5,5FU + Oxali + TL32711,16_black,16_black_right,14,112.78135
HCT116,5,5FU + Oxali + TL32711,16_black,16_black_right,15,NaN
HCT116,5,5FU + Oxali + TL32711,16_black,16_black_right,16,129.074088
HCT116,5,5FU + Oxali + TL32711,16_black,16_black_right,18,NaN
HCT116,5,5FU + Oxali + TL32711,16_black,16_black_right,19,129.07
HCT116,5,5FU + Oxali + TL32711,16_black,16_black_right,20,NaN
HCT116,5,5FU + Oxali + TL32711,16_black,16_black_right,21,125.89875
HCT116,5,5FU + Oxali + TL32711,16_black,16_black_right,22,NaN
HCT116,5,5FU + Oxali + TL32711,16_black,16_black_right,23,95.6417625
HCT116,5,5FU + Oxali + TL32711,16_black,16_black_right,25,NaN
HCT116,5,5FU + Oxali + TL32711,16_black,16_black_right,27,NaN
HCT116,5,5FU + Oxali + TL32711,16_black,16_black_left,5,112.280175
HCT116,5,5FU + Oxali + TL32711,16_black,16_black_left,7,80.38485
HCT116,5,5FU + Oxali + TL32711,16_black,16_black_left,9,83.629375
HCT116,5,5FU + Oxali + TL32711,16_black,16_black_left,11,NaN
HCT116,5,5FU + Oxali + TL32711,16_black,16_black_left,12,73.6524815
HCT116,5,5FU + Oxali + TL32711,16_black,16_black_left,13,NaN
HCT116,5,5FU + Oxali + TL32711,16_black,16_black_left,14,71.717246
HCT116,5,5FU + Oxali + TL32711,16_black,16_black_left,15,NaN
HCT116,5,5FU + Oxali + TL32711,16_black,16_black_left,16,89.722563
HCT116,5,5FU + Oxali + TL32711,16_black,16_black_left,18,NaN
HCT116,5,5FU + Oxali + TL32711,16_black,16_black_left,19,89.72
HCT116,5,5FU + Oxali + TL32711,16_black,16_black_left,20,NaN
HCT116,5,5FU + Oxali + TL32711,16_black,16_black_left,21,66.571614
HCT116,5,5FU + Oxali + TL32711,16_black,16_black_left,22,NaN
HCT116,5,5FU + Oxali + TL32711,16_black,16_black_left,23,49.173568
HCT116,5,5FU + Oxali + TL32711,16_black,16_black_left,25,NaN
HCT116,5,5FU + Oxali + TL32711,16_black,16_black_left,27,NaN
HCT116,5,5FU + Oxali + TL32711,17_red,17_red_right,5,143.3464875
HCT116,5,5FU + Oxali + TL32711,17_red,17_red_right,7,133.36128
HCT116,5,5FU + Oxali + TL32711,17_red,17_red_right,9,79.938648
HCT116,5,5FU + Oxali + TL32711,17_red,17_red_right,11,NaN
HCT116,5,5FU + Oxali + TL32711,17_red,17_red_right,12,170.0282925
HCT116,5,5FU + Oxali + TL32711,17_red,17_red_right,13,NaN
HCT116,5,5FU + Oxali + TL32711,17_red,17_red_right,14,145.33175
HCT116,5,5FU + Oxali + TL32711,17_red,17_red_right,15,NaN
HCT116,5,5FU + Oxali + TL32711,17_red,17_red_right,16,177.775136
HCT116,5,5FU + Oxali + TL32711,17_red,17_red_right,18,NaN
HCT116,5,5FU + Oxali + TL32711,17_red,17_red_right,19,126.49
HCT116,5,5FU + Oxali + TL32711,17_red,17_red_right,20,NaN
HCT116,5,5FU + Oxali + TL32711,17_red,17_red_right,21,207.26361
HCT116,5,5FU + Oxali + TL32711,17_red,17_red_right,22,NaN
HCT116,5,5FU + Oxali + TL32711,17_red,17_red_right,23,371.447208
HCT116,5,5FU + Oxali + TL32711,17_red,17_red_right,25,NaN
HCT116,5,5FU + Oxali + TL32711,17_red,17_red_right,27,NaN
HCT116,5,5FU + Oxali + TL32711,17_red,17_red_left,5,119.7513405
HCT116,5,5FU + Oxali + TL32711,17_red,17_red_left,7,136.693275
HCT116,5,5FU + Oxali + TL32711,17_red,17_red_left,9,137.431477
HCT116,5,5FU + Oxali + TL32711,17_red,17_red_left,11,NaN
HCT116,5,5FU + Oxali + TL32711,17_red,17_red_left,12,152.895963
HCT116,5,5FU + Oxali + TL32711,17_red,17_red_left,13,NaN
HCT116,5,5FU + Oxali + TL32711,17_red,17_red_left,14,262.5052125
HCT116,5,5FU + Oxali + TL32711,17_red,17_red_left,15,NaN
HCT116,5,5FU + Oxali + TL32711,17_red,17_red_left,16,123.0816465
HCT116,5,5FU + Oxali + TL32711,17_red,17_red_left,18,NaN
HCT116,5,5FU + Oxali + TL32711,17_red,17_red_left,19,124.74
HCT116,5,5FU + Oxali + TL32711,17_red,17_red_left,20,NaN
HCT116,5,5FU + Oxali + TL32711,17_red,17_red_left,21,273.525832
HCT116,5,5FU + Oxali + TL32711,17_red,17_red_left,22,NaN
HCT116,5,5FU + Oxali + TL32711,17_red,17_red_left,23,307.0548
HCT116,5,5FU + Oxali + TL32711,17_red,17_red_left,25,NaN
HCT116,5,5FU + Oxali + TL32711,17_red,17_red_left,27,NaN
HCT116,5,5FU + Oxali + TL32711,18_blue,18_blue_right,5,176.346247
HCT116,5,5FU + Oxali + TL32711,18_blue,18_blue_right,7,145.9584
HCT116,5,5FU + Oxali + TL32711,18_blue,18_blue_right,9,122.619756
HCT116,5,5FU + Oxali + TL32711,18_blue,18_blue_right,11,NaN
HCT116,5,5FU + Oxali + TL32711,18_blue,18_blue_right,12,143.8359375
HCT116,5,5FU + Oxali + TL32711,18_blue,18_blue_right,13,NaN
HCT116,5,5FU + Oxali + TL32711,18_blue,18_blue_right,14,190.339625
HCT116,5,5FU + Oxali + TL32711,18_blue,18_blue_right,15,NaN
HCT116,5,5FU + Oxali + TL32711,18_blue,18_blue_right,16,231.2721875
HCT116,5,5FU + Oxali + TL32711,18_blue,18_blue_right,18,NaN
HCT116,5,5FU + Oxali + TL32711,18_blue,18_blue_right,19,374.81
HCT116,5,5FU + Oxali + TL32711,18_blue,18_blue_right,20,NaN
HCT116,5,5FU + Oxali + TL32711,18_blue,18_blue_right,21,234.612774
HCT116,5,5FU + Oxali + TL32711,18_blue,18_blue_right,22,NaN
HCT116,5,5FU + Oxali + TL32711,18_blue,18_blue_right,23,293.763632
HCT116,5,5FU + Oxali + TL32711,18_blue,18_blue_right,25,NaN
HCT116,5,5FU + Oxali + TL32711,18_blue,18_blue_right,27,NaN
HCT116,5,5FU + Oxali + TL32711,18_blue,18_blue_left,5,122.448726
HCT116,5,5FU + Oxali + TL32711,18_blue,18_blue_left,7,172.0263375
HCT116,5,5FU + Oxali + TL32711,18_blue,18_blue_left,9,152.0220065
HCT116,5,5FU + Oxali + TL32711,18_blue,18_blue_left,11,NaN
HCT116,5,5FU + Oxali + TL32711,18_blue,18_blue_left,12,157.606492
HCT116,5,5FU + Oxali + TL32711,18_blue,18_blue_left,13,NaN
HCT116,5,5FU + Oxali + TL32711,18_blue,18_blue_left,14,217.807744
HCT116,5,5FU + Oxali + TL32711,18_blue,18_blue_left,15,NaN
HCT116,5,5FU + Oxali + TL32711,18_blue,18_blue_left,16,204.3
HCT116,5,5FU + Oxali + TL32711,18_blue,18_blue_left,18,NaN
HCT116,5,5FU + Oxali + TL32711,18_blue,18_blue_left,19,327.7
HCT116,5,5FU + Oxali + TL32711,18_blue,18_blue_left,20,NaN
HCT116,5,5FU + Oxali + TL32711,18_blue,18_blue_left,21,303.375646
HCT116,5,5FU + Oxali + TL32711,18_blue,18_blue_left,22,NaN
HCT116,5,5FU + Oxali + TL32711,18_blue,18_blue_left,23,228.2587875
HCT116,5,5FU + Oxali + TL32711,18_blue,18_blue_left,25,NaN
HCT116,5,5FU + Oxali + TL32711,18_blue,18_blue_left,27,NaN
HCT116,5,5FU + Oxali + TL32711,19_black,19_black_right,5,139.2186285
HCT116,5,5FU + Oxali + TL32711,19_black,19_black_right,7,93.256408
HCT116,5,5FU + Oxali + TL32711,19_black,19_black_right,9,91.4512275
HCT116,5,5FU + Oxali + TL32711,19_black,19_black_right,11,NaN
HCT116,5,5FU + Oxali + TL32711,19_black,19_black_right,12,84.2709375
HCT116,5,5FU + Oxali + TL32711,19_black,19_black_right,13,NaN
HCT116,5,5FU + Oxali + TL32711,19_black,19_black_right,14,151.281504
HCT116,5,5FU + Oxali + TL32711,19_black,19_black_right,15,NaN
HCT116,5,5FU + Oxali + TL32711,19_black,19_black_right,16,205.875918
HCT116,5,5FU + Oxali + TL32711,19_black,19_black_right,18,NaN
HCT116,5,5FU + Oxali + TL32711,19_black,19_black_right,19,270.92
HCT116,5,5FU + Oxali + TL32711,19_black,19_black_right,20,NaN
HCT116,5,5FU + Oxali + TL32711,19_black,19_black_right,21,192.230136
HCT116,5,5FU + Oxali + TL32711,19_black,19_black_right,22,NaN
HCT116,5,5FU + Oxali + TL32711,19_black,19_black_right,23,210.467322
HCT116,5,5FU + Oxali + TL32711,19_black,19_black_right,25,NaN
HCT116,5,5FU + Oxali + TL32711,19_black,19_black_right,27,NaN
HCT116,5,5FU + Oxali + TL32711,19_black,19_black_left,5,131.706948
HCT116,5,5FU + Oxali + TL32711,19_black,19_black_left,7,96.329835
HCT116,5,5FU + Oxali + TL32711,19_black,19_black_left,9,66.123648
HCT116,5,5FU + Oxali + TL32711,19_black,19_black_left,11,NaN
HCT116,5,5FU + Oxali + TL32711,19_black,19_black_left,12,47.996388
HCT116,5,5FU + Oxali + TL32711,19_black,19_black_left,13,NaN
HCT116,5,5FU + Oxali + TL32711,19_black,19_black_left,14,40.248707
HCT116,5,5FU + Oxali + TL32711,19_black,19_black_left,15,NaN
HCT116,5,5FU + Oxali + TL32711,19_black,19_black_left,16,83.557656
HCT116,5,5FU + Oxali + TL32711,19_black,19_black_left,18,NaN
HCT116,5,5FU + Oxali + TL32711,19_black,19_black_left,19,114.21
HCT116,5,5FU + Oxali + TL32711,19_black,19_black_left,20,NaN
HCT116,5,5FU + Oxali + TL32711,19_black,19_black_left,21,71.080568
HCT116,5,5FU + Oxali + TL32711,19_black,19_black_left,22,NaN
HCT116,5,5FU + Oxali + TL32711,19_black,19_black_left,23,146.7620145
HCT116,5,5FU + Oxali + TL32711,19_black,19_black_left,25,NaN
HCT116,5,5FU + Oxali + TL32711,19_black,19_black_left,27,NaN
HCT116,5,5FU + Oxali + TL32711,20_red,20_red_right,5,177.061618
HCT116,5,5FU + Oxali + TL32711,20_red,20_red_right,7,231.6731835
HCT116,5,5FU + Oxali + TL32711,20_red,20_red_right,9,204.6185225
HCT116,5,5FU + Oxali + TL32711,20_red,20_red_right,11,NaN
HCT116,5,5FU + Oxali + TL32711,20_red,20_red_right,12,368.108307
HCT116,5,5FU + Oxali + TL32711,20_red,20_red_right,13,NaN
HCT116,5,5FU + Oxali + TL32711,20_red,20_red_right,14,347.327232
HCT116,5,5FU + Oxali + TL32711,20_red,20_red_right,15,NaN
HCT116,5,5FU + Oxali + TL32711,20_red,20_red_right,16,391.36176
HCT116,5,5FU + Oxali + TL32711,20_red,20_red_right,18,NaN
HCT116,5,5FU + Oxali + TL32711,20_red,20_red_right,19,617.43
HCT116,5,5FU + Oxali + TL32711,20_red,20_red_right,20,NaN
HCT116,5,5FU + Oxali + TL32711,20_red,20_red_right,21,602.622406
HCT116,5,5FU + Oxali + TL32711,20_red,20_red_right,22,NaN
HCT116,5,5FU + Oxali + TL32711,20_red,20_red_right,23,567.433152
HCT116,5,5FU + Oxali + TL32711,20_red,20_red_right,25,NaN
HCT116,5,5FU + Oxali + TL32711,20_red,20_red_right,27,NaN
HCT116,5,5FU + Oxali + TL32711,20_red,20_red_left,5,152.196976
HCT116,5,5FU + Oxali + TL32711,20_red,20_red_left,7,124.589952
HCT116,5,5FU + Oxali + TL32711,20_red,20_red_left,9,112.8674085
HCT116,5,5FU + Oxali + TL32711,20_red,20_red_left,11,NaN
HCT116,5,5FU + Oxali + TL32711,20_red,20_red_left,12,119.7490875
HCT116,5,5FU + Oxali + TL32711,20_red,20_red_left,13,NaN
HCT116,5,5FU + Oxali + TL32711,20_red,20_red_left,14,152.9797545
HCT116,5,5FU + Oxali + TL32711,20_red,20_red_left,15,NaN
HCT116,5,5FU + Oxali + TL32711,20_red,20_red_left,16,206.5053035
HCT116,5,5FU + Oxali + TL32711,20_red,20_red_left,18,NaN
HCT116,5,5FU + Oxali + TL32711,20_red,20_red_left,19,378.69
HCT116,5,5FU + Oxali + TL32711,20_red,20_red_left,20,NaN
HCT116,5,5FU + Oxali + TL32711,20_red,20_red_left,21,341.2820015
HCT116,5,5FU + Oxali + TL32711,20_red,20_red_left,22,NaN
HCT116,5,5FU + Oxali + TL32711,20_red,20_red_left,23,306.4239545
HCT116,5,5FU + Oxali + TL32711,20_red,20_red_left,25,NaN
HCT116,5,5FU + Oxali + TL32711,20_red,20_red_left,27,NaN
HCT116,5,5FU + Oxali + TL32711,21_blue,21_blue_right,5,140.754267
HCT116,5,5FU + Oxali + TL32711,21_blue,21_blue_right,7,97.2413795
HCT116,5,5FU + Oxali + TL32711,21_blue,21_blue_right,9,84.991275
HCT116,5,5FU + Oxali + TL32711,21_blue,21_blue_right,11,NaN
HCT116,5,5FU + Oxali + TL32711,21_blue,21_blue_right,12,67.4022955
HCT116,5,5FU + Oxali + TL32711,21_blue,21_blue_right,13,NaN
HCT116,5,5FU + Oxali + TL32711,21_blue,21_blue_right,14,72.6657
HCT116,5,5FU + Oxali + TL32711,21_blue,21_blue_right,15,NaN
HCT116,5,5FU + Oxali + TL32711,21_blue,21_blue_right,16,79.807104
HCT116,5,5FU + Oxali + TL32711,21_blue,21_blue_right,18,NaN
HCT116,5,5FU + Oxali + TL32711,21_blue,21_blue_right,19,120.21
HCT116,5,5FU + Oxali + TL32711,21_blue,21_blue_right,20,NaN
HCT116,5,5FU + Oxali + TL32711,21_blue,21_blue_right,21,139.0224875
HCT116,5,5FU + Oxali + TL32711,21_blue,21_blue_right,22,NaN
HCT116,5,5FU + Oxali + TL32711,21_blue,21_blue_right,23,158.3866385
HCT116,5,5FU + Oxali + TL32711,21_blue,21_blue_right,25,NaN
HCT116,5,5FU + Oxali + TL32711,21_blue,21_blue_right,27,NaN
HCT116,5,5FU + Oxali + TL32711,21_blue,21_blue_left,5,220.17325
HCT116,5,5FU + Oxali + TL32711,21_blue,21_blue_left,7,214.4296
HCT116,5,5FU + Oxali + TL32711,21_blue,21_blue_left,9,241.3102185
HCT116,5,5FU + Oxali + TL32711,21_blue,21_blue_left,11,NaN
HCT116,5,5FU + Oxali + TL32711,21_blue,21_blue_left,12,165.0071435
HCT116,5,5FU + Oxali + TL32711,21_blue,21_blue_left,13,NaN
HCT116,5,5FU + Oxali + TL32711,21_blue,21_blue_left,14,228.215295
HCT116,5,5FU + Oxali + TL32711,21_blue,21_blue_left,15,NaN
HCT116,5,5FU + Oxali + TL32711,21_blue,21_blue_left,16,201.3061
HCT116,5,5FU + Oxali + TL32711,21_blue,21_blue_left,18,NaN
HCT116,5,5FU + Oxali + TL32711,21_blue,21_blue_left,19,232.79
HCT116,5,5FU + Oxali + TL32711,21_blue,21_blue_left,20,NaN
HCT116,5,5FU + Oxali + TL32711,21_blue,21_blue_left,21,169.962544
HCT116,5,5FU + Oxali + TL32711,21_blue,21_blue_left,22,NaN
HCT116,5,5FU + Oxali + TL32711,21_blue,21_blue_left,23,199.966158
HCT116,5,5FU + Oxali + TL32711,21_blue,21_blue_left,25,NaN
HCT116,5,5FU + Oxali + TL32711,21_blue,21_blue_left,27,NaN
LoVo,11,Control,22_black,22_black_right,5,NaN
LoVo,11,Control,22_black,22_black_right,7,NaN
LoVo,11,Control,22_black,22_black_right,9,NaN
LoVo,11,Control,22_black,22_black_right,11,141.8
LoVo,11,Control,22_black,22_black_right,12,NaN
LoVo,11,Control,22_black,22_black_right,13,176.42
LoVo,11,Control,22_black,22_black_right,14,NaN
LoVo,11,Control,22_black,22_black_right,15,134.07
LoVo,11,Control,22_black,22_black_right,16,NaN
LoVo,11,Control,22_black,22_black_right,18,173.812114
LoVo,11,Control,22_black,22_black_right,19,NaN
LoVo,11,Control,22_black,22_black_right,20,286.2028125
LoVo,11,Control,22_black,22_black_right,21,NaN
LoVo,11,Control,22_black,22_black_right,22,244.95925
LoVo,11,Control,22_black,22_black_right,23,NaN
LoVo,11,Control,22_black,22_black_right,25,349.172932
LoVo,11,Control,22_black,22_black_right,27,371.33
LoVo,11,Control,22_black,22_black_left,5,NaN
LoVo,11,Control,22_black,22_black_left,7,NaN
LoVo,11,Control,22_black,22_black_left,9,NaN
LoVo,11,Control,22_black,22_black_left,11,87.3
LoVo,11,Control,22_black,22_black_left,12,NaN
LoVo,11,Control,22_black,22_black_left,13,169.44
LoVo,11,Control,22_black,22_black_left,14,NaN
LoVo,11,Control,22_black,22_black_left,15,122.83
LoVo,11,Control,22_black,22_black_left,16,NaN
LoVo,11,Control,22_black,22_black_left,18,192.171856
LoVo,11,Control,22_black,22_black_left,19,NaN
LoVo,11,Control,22_black,22_black_left,20,217.63017
LoVo,11,Control,22_black,22_black_left,21,NaN
LoVo,11,Control,22_black,22_black_left,22,266.148333
LoVo,11,Control,22_black,22_black_left,23,NaN
LoVo,11,Control,22_black,22_black_left,25,271.533465
LoVo,11,Control,22_black,22_black_left,27,251.08
LoVo,11,Control,23_red,23_red_right,5,NaN
LoVo,11,Control,23_red,23_red_right,7,NaN
LoVo,11,Control,23_red,23_red_right,9,NaN
LoVo,11,Control,23_red,23_red_right,11,193.85
LoVo,11,Control,23_red,23_red_right,12,NaN
LoVo,11,Control,23_red,23_red_right,13,204.92
LoVo,11,Control,23_red,23_red_right,14,NaN
LoVo,11,Control,23_red,23_red_right,15,226.02
LoVo,11,Control,23_red,23_red_right,16,NaN
LoVo,11,Control,23_red,23_red_right,18,259.0122195
LoVo,11,Control,23_red,23_red_right,19,NaN
LoVo,11,Control,23_red,23_red_right,20,381.15
LoVo,11,Control,23_red,23_red_right,21,NaN
LoVo,11,Control,23_red,23_red_right,22,438.2494875
LoVo,11,Control,23_red,23_red_right,23,NaN
LoVo,11,Control,23_red,23_red_right,25,445.7704125
LoVo,11,Control,23_red,23_red_right,27,487.53
LoVo,11,Control,23_red,23_red_left,5,NaN
LoVo,11,Control,23_red,23_red_left,7,NaN
LoVo,11,Control,23_red,23_red_left,9,NaN
LoVo,11,Control,23_red,23_red_left,11,248.76
LoVo,11,Control,23_red,23_red_left,12,NaN
LoVo,11,Control,23_red,23_red_left,13,300.32
LoVo,11,Control,23_red,23_red_left,14,NaN
LoVo,11,Control,23_red,23_red_left,15,316.02
LoVo,11,Control,23_red,23_red_left,16,NaN
LoVo,11,Control,23_red,23_red_left,18,374.409825
LoVo,11,Control,23_red,23_red_left,19,NaN
LoVo,11,Control,23_red,23_red_left,20,499.757938
LoVo,11,Control,23_red,23_red_left,21,NaN
LoVo,11,Control,23_red,23_red_left,22,594.4616725
LoVo,11,Control,23_red,23_red_left,23,NaN
LoVo,11,Control,23_red,23_red_left,25,642.64286
LoVo,11,Control,23_red,23_red_left,27,745.28
LoVo,11,Control,24_white,24_white_right,5,NaN
LoVo,11,Control,24_white,24_white_right,7,NaN
LoVo,11,Control,24_white,24_white_right,9,NaN
LoVo,11,Control,24_white,24_white_right,11,222.19
LoVo,11,Control,24_white,24_white_right,12,NaN
LoVo,11,Control,24_white,24_white_right,13,370.48
LoVo,11,Control,24_white,24_white_right,14,NaN
LoVo,11,Control,24_white,24_white_right,15,440.81
LoVo,11,Control,24_white,24_white_right,16,NaN
LoVo,11,Control,24_white,24_white_right,18,565.818072
LoVo,11,Control,24_white,24_white_right,19,NaN
LoVo,11,Control,24_white,24_white_right,20,613.1521705
LoVo,11,Control,24_white,24_white_right,21,NaN
LoVo,11,Control,24_white,24_white_right,22,679.20443
LoVo,11,Control,24_white,24_white_right,23,NaN
LoVo,11,Control,24_white,24_white_right,25,637.643
LoVo,11,Control,24_white,24_white_right,27,559.58
LoVo,11,Control,24_white,24_white_left,5,NaN
LoVo,11,Control,24_white,24_white_left,7,NaN
LoVo,11,Control,24_white,24_white_left,9,NaN
LoVo,11,Control,24_white,24_white_left,11,108.34
LoVo,11,Control,24_white,24_white_left,12,NaN
LoVo,11,Control,24_white,24_white_left,13,218.59
LoVo,11,Control,24_white,24_white_left,14,NaN
LoVo,11,Control,24_white,24_white_left,15,219.98
LoVo,11,Control,24_white,24_white_left,16,NaN
LoVo,11,Control,24_white,24_white_left,18,303.017715
LoVo,11,Control,24_white,24_white_left,19,NaN
LoVo,11,Control,24_white,24_white_left,20,351.246744
LoVo,11,Control,24_white,24_white_left,21,NaN
LoVo,11,Control,24_white,24_white_left,22,564.1272
LoVo,11,Control,24_white,24_white_left,23,NaN
LoVo,11,Control,24_white,24_white_left,25,512.975
LoVo,11,Control,24_white,24_white_left,27,546.06
LoVo,11,Control,25_black,25_black_right,5,NaN
LoVo,11,Control,25_black,25_black_right,7,NaN
LoVo,11,Control,25_black,25_black_right,9,NaN
LoVo,11,Control,25_black,25_black_right,11,111.06
LoVo,11,Control,25_black,25_black_right,12,NaN
LoVo,11,Control,25_black,25_black_right,13,179.97
LoVo,11,Control,25_black,25_black_right,14,NaN
LoVo,11,Control,25_black,25_black_right,15,268.32
LoVo,11,Control,25_black,25_black_right,16,NaN
LoVo,11,Control,25_black,25_black_right,18,490.77256
LoVo,11,Control,25_black,25_black_right,19,NaN
LoVo,11,Control,25_black,25_black_right,20,516.871332
LoVo,11,Control,25_black,25_black_right,21,NaN
LoVo,11,Control,25_black,25_black_right,22,678.1784375
LoVo,11,Control,25_black,25_black_right,23,NaN
LoVo,11,Control,25_black,25_black_right,25,657.016658
LoVo,11,Control,25_black,25_black_right,27,663.28
LoVo,11,Control,25_black,25_black_left,5,NaN
LoVo,11,Control,25_black,25_black_left,7,NaN
LoVo,11,Control,25_black,25_black_left,9,NaN
LoVo,11,Control,25_black,25_black_left,11,62.02
LoVo,11,Control,25_black,25_black_left,12,NaN
LoVo,11,Control,25_black,25_black_left,13,141.58
LoVo,11,Control,25_black,25_black_left,14,NaN
LoVo,11,Control,25_black,25_black_left,15,143.74
LoVo,11,Control,25_black,25_black_left,16,NaN
LoVo,11,Control,25_black,25_black_left,18,237.900099
LoVo,11,Control,25_black,25_black_left,19,NaN
LoVo,11,Control,25_black,25_black_left,20,251.007876
LoVo,11,Control,25_black,25_black_left,21,NaN
LoVo,11,Control,25_black,25_black_left,22,313.65936
LoVo,11,Control,25_black,25_black_left,23,NaN
LoVo,11,Control,25_black,25_black_left,25,378.4785075
LoVo,11,Control,25_black,25_black_left,27,385.66
LoVo,11,Control,26_red,26_red_right,5,NaN
LoVo,11,Control,26_red,26_red_right,7,NaN
LoVo,11,Control,26_red,26_red_right,9,NaN
LoVo,11,Control,26_red,26_red_right,11,134.07
LoVo,11,Control,26_red,26_red_right,12,NaN
LoVo,11,Control,26_red,26_red_right,13,310.33
LoVo,11,Control,26_red,26_red_right,14,NaN
LoVo,11,Control,26_red,26_red_right,15,380.37
LoVo,11,Control,26_red,26_red_right,16,NaN
LoVo,11,Control,26_red,26_red_right,18,418.9275855
LoVo,11,Control,26_red,26_red_right,19,NaN
LoVo,11,Control,26_red,26_red_right,20,611.065125
LoVo,11,Control,26_red,26_red_right,21,NaN
LoVo,11,Control,26_red,26_red_right,22,725.673536
LoVo,11,Control,26_red,26_red_right,23,NaN
LoVo,11,Control,26_red,26_red_right,25,757.347246
LoVo,11,Control,26_red,26_red_right,27,730.91
LoVo,11,Control,26_red,26_red_left,5,NaN
LoVo,11,Control,26_red,26_red_left,7,NaN
LoVo,11,Control,26_red,26_red_left,9,NaN
LoVo,11,Control,26_red,26_red_left,11,220.34
LoVo,11,Control,26_red,26_red_left,12,NaN
LoVo,11,Control,26_red,26_red_left,13,275.47
LoVo,11,Control,26_red,26_red_left,14,NaN
LoVo,11,Control,26_red,26_red_left,15,294.98
LoVo,11,Control,26_red,26_red_left,16,NaN
LoVo,11,Control,26_red,26_red_left,18,492.6698685
LoVo,11,Control,26_red,26_red_left,19,NaN
LoVo,11,Control,26_red,26_red_left,20,443.1175335
LoVo,11,Control,26_red,26_red_left,21,NaN
LoVo,11,Control,26_red,26_red_left,22,492.646784
LoVo,11,Control,26_red,26_red_left,23,NaN
LoVo,11,Control,26_red,26_red_left,25,572.8940625
LoVo,11,Control,26_red,26_red_left,27,617.46
LoVo,11,Control,27_blue,27_blue_right,5,NaN
LoVo,11,Control,27_blue,27_blue_right,7,NaN
LoVo,11,Control,27_blue,27_blue_right,9,NaN
LoVo,11,Control,27_blue,27_blue_right,11,147.72
LoVo,11,Control,27_blue,27_blue_right,12,NaN
LoVo,11,Control,27_blue,27_blue_right,13,203.15
LoVo,11,Control,27_blue,27_blue_right,14,NaN
LoVo,11,Control,27_blue,27_blue_right,15,83.33
LoVo,11,Control,27_blue,27_blue_right,16,NaN
LoVo,11,Control,27_blue,27_blue_right,18,174.950946
LoVo,11,Control,27_blue,27_blue_right,19,NaN
LoVo,11,Control,27_blue,27_blue_right,20,373.52385
LoVo,11,Control,27_blue,27_blue_right,21,NaN
LoVo,11,Control,27_blue,27_blue_right,22,444.734217
LoVo,11,Control,27_blue,27_blue_right,23,NaN
LoVo,11,Control,27_blue,27_blue_right,25,480.548448
LoVo,11,Control,27_blue,27_blue_right,27,549.94
LoVo,11,Control,27_blue,27_blue_left,5,NaN
LoVo,11,Control,27_blue,27_blue_left,7,NaN
LoVo,11,Control,27_blue,27_blue_left,9,NaN
LoVo,11,Control,27_blue,27_blue_left,11,54.21
LoVo,11,Control,27_blue,27_blue_left,12,NaN
LoVo,11,Control,27_blue,27_blue_left,13,40.39
LoVo,11,Control,27_blue,27_blue_left,14,NaN
LoVo,11,Control,27_blue,27_blue_left,15,77.9
LoVo,11,Control,27_blue,27_blue_left,16,NaN
LoVo,11,Control,27_blue,27_blue_left,18,73.192175
LoVo,11,Control,27_blue,27_blue_left,19,NaN
LoVo,11,Control,27_blue,27_blue_left,20,125.4852275
LoVo,11,Control,27_blue,27_blue_left,21,NaN
LoVo,11,Control,27_blue,27_blue_left,22,193.551336
LoVo,11,Control,27_blue,27_blue_left,23,NaN
LoVo,11,Control,27_blue,27_blue_left,25,271.748125
LoVo,11,Control,27_blue,27_blue_left,27,285.68
LoVo,11,Control,28_white,28_white_right,5,NaN
LoVo,11,Control,28_white,28_white_right,7,NaN
LoVo,11,Control,28_white,28_white_right,9,NaN
LoVo,11,Control,28_white,28_white_right,11,141.73
LoVo,11,Control,28_white,28_white_right,12,NaN
LoVo,11,Control,28_white,28_white_right,13,368.1
LoVo,11,Control,28_white,28_white_right,14,NaN
LoVo,11,Control,28_white,28_white_right,15,231.31
LoVo,11,Control,28_white,28_white_right,16,NaN
LoVo,11,Control,28_white,28_white_right,18,309.131568
LoVo,11,Control,28_white,28_white_right,19,NaN
LoVo,11,Control,28_white,28_white_right,20,354.500692
LoVo,11,Control,28_white,28_white_right,21,NaN
LoVo,11,Control,28_white,28_white_right,22,427.37442
LoVo,11,Control,28_white,28_white_right,23,NaN
LoVo,11,Control,28_white,28_white_right,25,525.51324
LoVo,11,Control,28_white,28_white_right,27,462.96
LoVo,11,Control,28_white,28_white_left,5,NaN
LoVo,11,Control,28_white,28_white_left,7,NaN
LoVo,11,Control,28_white,28_white_left,9,NaN
LoVo,11,Control,28_white,28_white_left,11,42.91
LoVo,11,Control,28_white,28_white_left,12,NaN
LoVo,11,Control,28_white,28_white_left,13,71.88
LoVo,11,Control,28_white,28_white_left,14,NaN
LoVo,11,Control,28_white,28_white_left,15,104.46
LoVo,11,Control,28_white,28_white_left,16,NaN
LoVo,11,Control,28_white,28_white_left,18,169.264174
LoVo,11,Control,28_white,28_white_left,19,NaN
LoVo,11,Control,28_white,28_white_left,20,211.489726
LoVo,11,Control,28_white,28_white_left,21,NaN
LoVo,11,Control,28_white,28_white_left,22,189.363486
LoVo,11,Control,28_white,28_white_left,23,NaN
LoVo,11,Control,28_white,28_white_left,25,321.803728
LoVo,11,Control,28_white,28_white_left,27,353.01
LoVo,11,TL32711,29_black,29_black_right,5,NaN
LoVo,11,TL32711,29_black,29_black_right,7,NaN
LoVo,11,TL32711,29_black,29_black_right,9,NaN
LoVo,11,TL32711,29_black,29_black_right,11,160.39
LoVo,11,TL32711,29_black,29_black_right,12,NaN
LoVo,11,TL32711,29_black,29_black_right,13,218.44
LoVo,11,TL32711,29_black,29_black_right,14,NaN
LoVo,11,TL32711,29_black,29_black_right,15,240.05
LoVo,11,TL32711,29_black,29_black_right,16,NaN
LoVo,11,TL32711,29_black,29_black_right,18,246.1669115
LoVo,11,TL32711,29_black,29_black_right,19,NaN
LoVo,11,TL32711,29_black,29_black_right,20,333.586342
LoVo,11,TL32711,29_black,29_black_right,21,NaN
LoVo,11,TL32711,29_black,29_black_right,22,326.321928
LoVo,11,TL32711,29_black,29_black_right,23,NaN
LoVo,11,TL32711,29_black,29_black_right,25,379.712242
LoVo,11,TL32711,29_black,29_black_right,27,452.38
LoVo,11,TL32711,29_black,29_black_left,5,NaN
LoVo,11,TL32711,29_black,29_black_left,7,NaN
LoVo,11,TL32711,29_black,29_black_left,9,NaN
LoVo,11,TL32711,29_black,29_black_left,11,195.74
LoVo,11,TL32711,29_black,29_black_left,12,NaN
LoVo,11,TL32711,29_black,29_black_left,13,207.01
LoVo,11,TL32711,29_black,29_black_left,14,NaN
LoVo,11,TL32711,29_black,29_black_left,15,156.12
LoVo,11,TL32711,29_black,29_black_left,16,NaN
LoVo,11,TL32711,29_black,29_black_left,18,147.324928
LoVo,11,TL32711,29_black,29_black_left,19,NaN
LoVo,11,TL32711,29_black,29_black_left,20,202.14016
LoVo,11,TL32711,29_black,29_black_left,21,NaN
LoVo,11,TL32711,29_black,29_black_left,22,169.0304
LoVo,11,TL32711,29_black,29_black_left,23,NaN
LoVo,11,TL32711,29_black,29_black_left,25,163.825304
LoVo,11,TL32711,29_black,29_black_left,27,190.1
LoVo,11,TL32711,30_red,30_red_right,5,NaN
LoVo,11,TL32711,30_red,30_red_right,7,NaN
LoVo,11,TL32711,30_red,30_red_right,9,NaN
LoVo,11,TL32711,30_red,30_red_right,11,115.15
LoVo,11,TL32711,30_red,30_red_right,12,NaN
LoVo,11,TL32711,30_red,30_red_right,13,204.88
LoVo,11,TL32711,30_red,30_red_right,14,NaN
LoVo,11,TL32711,30_red,30_red_right,15,216.41
LoVo,11,TL32711,30_red,30_red_right,16,NaN
LoVo,11,TL32711,30_red,30_red_right,18,248.511678
LoVo,11,TL32711,30_red,30_red_right,19,NaN
LoVo,11,TL32711,30_red,30_red_right,20,284.239984
LoVo,11,TL32711,30_red,30_red_right,21,NaN
LoVo,11,TL32711,30_red,30_red_right,22,287.3816
LoVo,11,TL32711,30_red,30_red_right,23,NaN
LoVo,11,TL32711,30_red,30_red_right,25,298.965408
LoVo,11,TL32711,30_red,30_red_right,27,187.69
LoVo,11,TL32711,30_red,30_red_left,5,NaN
LoVo,11,TL32711,30_red,30_red_left,7,NaN
LoVo,11,TL32711,30_red,30_red_left,9,NaN
LoVo,11,TL32711,30_red,30_red_left,11,71.64
LoVo,11,TL32711,30_red,30_red_left,12,NaN
LoVo,11,TL32711,30_red,30_red_left,13,113.3
LoVo,11,TL32711,30_red,30_red_left,14,NaN
LoVo,11,TL32711,30_red,30_red_left,15,119.91
LoVo,11,TL32711,30_red,30_red_left,16,NaN
LoVo,11,TL32711,30_red,30_red_left,18,156.6144645
LoVo,11,TL32711,30_red,30_red_left,19,NaN
LoVo,11,TL32711,30_red,30_red_left,20,170.303875
LoVo,11,TL32711,30_red,30_red_left,21,NaN
LoVo,11,TL32711,30_red,30_red_left,22,147.251238
LoVo,11,TL32711,30_red,30_red_left,23,NaN
LoVo,11,TL32711,30_red,30_red_left,25,119.879326
LoVo,11,TL32711,30_red,30_red_left,27,159.34
LoVo,11,TL32711,31_blue,31_blue_right,5,NaN
LoVo,11,TL32711,31_blue,31_blue_right,7,NaN
LoVo,11,TL32711,31_blue,31_blue_right,9,NaN
LoVo,11,TL32711,31_blue,31_blue_right,11,229.87
LoVo,11,TL32711,31_blue,31_blue_right,12,NaN
LoVo,11,TL32711,31_blue,31_blue_right,13,370.8
LoVo,11,TL32711,31_blue,31_blue_right,14,NaN
LoVo,11,TL32711,31_blue,31_blue_right,15,409.9
LoVo,11,TL32711,31_blue,31_blue_right,16,NaN
LoVo,11,TL32711,31_blue,31_blue_right,18,510.471228
LoVo,11,TL32711,31_blue,31_blue_right,19,NaN
LoVo,11,TL32711,31_blue,31_blue_right,20,488.926512
LoVo,11,TL32711,31_blue,31_blue_right,21,NaN
LoVo,11,TL32711,31_blue,31_blue_right,22,617.180257
LoVo,11,TL32711,31_blue,31_blue_right,23,NaN
LoVo,11,TL32711,31_blue,31_blue_right,25,837.8218395
LoVo,11,TL32711,31_blue,31_blue_right,27,571.83
LoVo,11,TL32711,31_blue,31_blue_left,5,NaN
LoVo,11,TL32711,31_blue,31_blue_left,7,NaN
LoVo,11,TL32711,31_blue,31_blue_left,9,NaN
LoVo,11,TL32711,31_blue,31_blue_left,11,192.89
LoVo,11,TL32711,31_blue,31_blue_left,12,NaN
LoVo,11,TL32711,31_blue,31_blue_left,13,353.63
LoVo,11,TL32711,31_blue,31_blue_left,14,NaN
LoVo,11,TL32711,31_blue,31_blue_left,15,399.71
LoVo,11,TL32711,31_blue,31_blue_left,16,NaN
LoVo,11,TL32711,31_blue,31_blue_left,18,657.2691565
LoVo,11,TL32711,31_blue,31_blue_left,19,NaN
LoVo,11,TL32711,31_blue,31_blue_left,20,689.8625325
LoVo,11,TL32711,31_blue,31_blue_left,21,NaN
LoVo,11,TL32711,31_blue,31_blue_left,22,717.6421935
LoVo,11,TL32711,31_blue,31_blue_left,23,NaN
LoVo,11,TL32711,31_blue,31_blue_left,25,813.3076115
LoVo,11,TL32711,31_blue,31_blue_left,27,941.18
LoVo,11,TL32711,32_white,32_white_right,5,NaN
LoVo,11,TL32711,32_white,32_white_right,7,NaN
LoVo,11,TL32711,32_white,32_white_right,9,NaN
LoVo,11,TL32711,32_white,32_white_right,11,175.76
LoVo,11,TL32711,32_white,32_white_right,12,NaN
LoVo,11,TL32711,32_white,32_white_right,13,208.43
LoVo,11,TL32711,32_white,32_white_right,14,NaN
LoVo,11,TL32711,32_white,32_white_right,15,190.72
LoVo,11,TL32711,32_white,32_white_right,16,NaN
LoVo,11,TL32711,32_white,32_white_right,18,285.9508
LoVo,11,TL32711,32_white,32_white_right,19,NaN
LoVo,11,TL32711,32_white,32_white_right,20,296.629353
LoVo,11,TL32711,32_white,32_white_right,21,NaN
LoVo,11,TL32711,32_white,32_white_right,22,219.7408185
LoVo,11,TL32711,32_white,32_white_right,23,NaN
LoVo,11,TL32711,32_white,32_white_right,25,339.827481
LoVo,11,TL32711,32_white,32_white_right,27,160.77
LoVo,11,TL32711,32_white,32_white_left,5,NaN
LoVo,11,TL32711,32_white,32_white_left,7,NaN
LoVo,11,TL32711,32_white,32_white_left,9,NaN
LoVo,11,TL32711,32_white,32_white_left,11,192.74
LoVo,11,TL32711,32_white,32_white_left,12,NaN
LoVo,11,TL32711,32_white,32_white_left,13,321.41
LoVo,11,TL32711,32_white,32_white_left,14,NaN
LoVo,11,TL32711,32_white,32_white_left,15,363.99
LoVo,11,TL32711,32_white,32_white_left,16,NaN
LoVo,11,TL32711,32_white,32_white_left,18,317.296503
LoVo,11,TL32711,32_white,32_white_left,19,NaN
LoVo,11,TL32711,32_white,32_white_left,20,346.0146135
LoVo,11,TL32711,32_white,32_white_left,21,NaN
LoVo,11,TL32711,32_white,32_white_left,22,348.21605
LoVo,11,TL32711,32_white,32_white_left,23,NaN
LoVo,11,TL32711,32_white,32_white_left,25,467.109645
LoVo,11,TL32711,32_white,32_white_left,27,488.3
LoVo,11,TL32711,33_black,33_black_right,5,NaN
LoVo,11,TL32711,33_black,33_black_right,7,NaN
LoVo,11,TL32711,33_black,33_black_right,9,NaN
LoVo,11,TL32711,33_black,33_black_right,11,97.7
LoVo,11,TL32711,33_black,33_black_right,12,NaN
LoVo,11,TL32711,33_black,33_black_right,13,199.48
LoVo,11,TL32711,33_black,33_black_right,14,NaN
LoVo,11,TL32711,33_black,33_black_right,15,193.2
LoVo,11,TL32711,33_black,33_black_right,16,NaN
LoVo,11,TL32711,33_black,33_black_right,18,218.1751605
LoVo,11,TL32711,33_black,33_black_right,19,NaN
LoVo,11,TL32711,33_black,33_black_right,20,249.2816595
LoVo,11,TL32711,33_black,33_black_right,21,NaN
LoVo,11,TL32711,33_black,33_black_right,22,282.157092
LoVo,11,TL32711,33_black,33_black_right,23,NaN
LoVo,11,TL32711,33_black,33_black_right,25,300.744856
LoVo,11,TL32711,33_black,33_black_right,27,322.97
LoVo,11,TL32711,33_black,33_black_left,5,NaN
LoVo,11,TL32711,33_black,33_black_left,7,NaN
LoVo,11,TL32711,33_black,33_black_left,9,NaN
LoVo,11,TL32711,33_black,33_black_left,11,61.36
LoVo,11,TL32711,33_black,33_black_left,12,NaN
LoVo,11,TL32711,33_black,33_black_left,13,184.88
LoVo,11,TL32711,33_black,33_black_left,14,NaN
LoVo,11,TL32711,33_black,33_black_left,15,113.87
LoVo,11,TL32711,33_black,33_black_left,16,NaN
LoVo,11,TL32711,33_black,33_black_left,18,112.8297755
LoVo,11,TL32711,33_black,33_black_left,19,NaN
LoVo,11,TL32711,33_black,33_black_left,20,125.5623
LoVo,11,TL32711,33_black,33_black_left,21,NaN
LoVo,11,TL32711,33_black,33_black_left,22,144.77175
LoVo,11,TL32711,33_black,33_black_left,23,NaN
LoVo,11,TL32711,33_black,33_black_left,25,186.0861625
LoVo,11,TL32711,33_black,33_black_left,27,253.85
LoVo,11,TL32711,34_red,34_red_right,5,NaN
LoVo,11,TL32711,34_red,34_red_right,7,NaN
LoVo,11,TL32711,34_red,34_red_right,9,NaN
LoVo,11,TL32711,34_red,34_red_right,11,126.53
LoVo,11,TL32711,34_red,34_red_right,12,NaN
LoVo,11,TL32711,34_red,34_red_right,13,132.52
LoVo,11,TL32711,34_red,34_red_right,14,NaN
LoVo,11,TL32711,34_red,34_red_right,15,107.27
LoVo,11,TL32711,34_red,34_red_right,16,NaN
LoVo,11,TL32711,34_red,34_red_right,18,138.8391975
LoVo,11,TL32711,34_red,34_red_right,19,NaN
LoVo,11,TL32711,34_red,34_red_right,20,80.9393125
LoVo,11,TL32711,34_red,34_red_right,21,NaN
LoVo,11,TL32711,34_red,34_red_right,22,135.9
LoVo,11,TL32711,34_red,34_red_right,23,NaN
LoVo,11,TL32711,34_red,34_red_right,25,182.3463
LoVo,11,TL32711,34_red,34_red_right,27,295.5
LoVo,11,TL32711,34_red,34_red_left,5,NaN
LoVo,11,TL32711,34_red,34_red_left,7,NaN
LoVo,11,TL32711,34_red,34_red_left,9,NaN
LoVo,11,TL32711,34_red,34_red_left,11,221.43
LoVo,11,TL32711,34_red,34_red_left,12,NaN
LoVo,11,TL32711,34_red,34_red_left,13,302.54
LoVo,11,TL32711,34_red,34_red_left,14,NaN
LoVo,11,TL32711,34_red,34_red_left,15,276.42
LoVo,11,TL32711,34_red,34_red_left,16,NaN
LoVo,11,TL32711,34_red,34_red_left,18,358.905632
LoVo,11,TL32711,34_red,34_red_left,19,NaN
LoVo,11,TL32711,34_red,34_red_left,20,395.290321
LoVo,11,TL32711,34_red,34_red_left,21,NaN
LoVo,11,TL32711,34_red,34_red_left,22,572.066712
LoVo,11,TL32711,34_red,34_red_left,23,NaN
LoVo,11,TL32711,34_red,34_red_left,25,441.5643315
LoVo,11,TL32711,34_red,34_red_left,27,630.4
LoVo,11,TL32711,35_white,35_white_right,5,NaN
LoVo,11,TL32711,35_white,35_white_right,7,NaN
LoVo,11,TL32711,35_white,35_white_right,9,NaN
LoVo,11,TL32711,35_white,35_white_right,11,189.65
LoVo,11,TL32711,35_white,35_white_right,12,NaN
LoVo,11,TL32711,35_white,35_white_right,13,362.02
LoVo,11,TL32711,35_white,35_white_right,14,NaN
LoVo,11,TL32711,35_white,35_white_right,15,308.54
LoVo,11,TL32711,35_white,35_white_right,16,NaN
LoVo,11,TL32711,35_white,35_white_right,18,443.867008
LoVo,11,TL32711,35_white,35_white_right,19,NaN
LoVo,11,TL32711,35_white,35_white_right,20,391.090176
LoVo,11,TL32711,35_white,35_white_right,21,NaN
LoVo,11,TL32711,35_white,35_white_right,22,393.1894845
LoVo,11,TL32711,35_white,35_white_right,23,NaN
LoVo,11,TL32711,35_white,35_white_right,25,424.3600125
LoVo,11,TL32711,35_white,35_white_right,27,391.98
LoVo,11,TL32711,35_white,35_white_left,5,NaN
LoVo,11,TL32711,35_white,35_white_left,7,NaN
LoVo,11,TL32711,35_white,35_white_left,9,NaN
LoVo,11,TL32711,35_white,35_white_left,11,86.15
LoVo,11,TL32711,35_white,35_white_left,12,NaN
LoVo,11,TL32711,35_white,35_white_left,13,238.1
LoVo,11,TL32711,35_white,35_white_left,14,NaN
LoVo,11,TL32711,35_white,35_white_left,15,153.04
LoVo,11,TL32711,35_white,35_white_left,16,NaN
LoVo,11,TL32711,35_white,35_white_left,18,205.0772745
LoVo,11,TL32711,35_white,35_white_left,19,NaN
LoVo,11,TL32711,35_white,35_white_left,20,137.532318
LoVo,11,TL32711,35_white,35_white_left,21,NaN
LoVo,11,TL32711,35_white,35_white_left,22,320.1473745
LoVo,11,TL32711,35_white,35_white_left,23,NaN
LoVo,11,TL32711,35_white,35_white_left,25,273.894075
LoVo,11,TL32711,35_white,35_white_left,27,196.74
LoVo,11,5FU + Oxali,36_black,36_black_right,5,NaN
LoVo,11,5FU + Oxali,36_black,36_black_right,7,NaN
LoVo,11,5FU + Oxali,36_black,36_black_right,9,NaN
LoVo,11,5FU + Oxali,36_black,36_black_right,11,99.85
LoVo,11,5FU + Oxali,36_black,36_black_right,12,NaN
LoVo,11,5FU + Oxali,36_black,36_black_right,13,220.69
LoVo,11,5FU + Oxali,36_black,36_black_right,14,NaN
LoVo,11,5FU + Oxali,36_black,36_black_right,15,258.36
LoVo,11,5FU + Oxali,36_black,36_black_right,16,NaN
LoVo,11,5FU + Oxali,36_black,36_black_right,18,358.560444
LoVo,11,5FU + Oxali,36_black,36_black_right,19,NaN
LoVo,11,5FU + Oxali,36_black,36_black_right,20,333.106582
LoVo,11,5FU + Oxali,36_black,36_black_right,21,NaN
LoVo,11,5FU + Oxali,36_black,36_black_right,22,481.9863375
LoVo,11,5FU + Oxali,36_black,36_black_right,23,NaN
LoVo,11,5FU + Oxali,36_black,36_black_right,25,481.5473485
LoVo,11,5FU + Oxali,36_black,36_black_right,27,602.78
LoVo,11,5FU + Oxali,36_black,36_black_left,5,NaN
LoVo,11,5FU + Oxali,36_black,36_black_left,7,NaN
LoVo,11,5FU + Oxali,36_black,36_black_left,9,NaN
LoVo,11,5FU + Oxali,36_black,36_black_left,11,129.85
LoVo,11,5FU + Oxali,36_black,36_black_left,12,NaN
LoVo,11,5FU + Oxali,36_black,36_black_left,13,216.99
LoVo,11,5FU + Oxali,36_black,36_black_left,14,NaN
LoVo,11,5FU + Oxali,36_black,36_black_left,15,245.38
LoVo,11,5FU + Oxali,36_black,36_black_left,16,NaN
LoVo,11,5FU + Oxali,36_black,36_black_left,18,313.0999625
LoVo,11,5FU + Oxali,36_black,36_black_left,19,NaN
LoVo,11,5FU + Oxali,36_black,36_black_left,20,332.12799
LoVo,11,5FU + Oxali,36_black,36_black_left,21,NaN
LoVo,11,5FU + Oxali,36_black,36_black_left,22,344.905176
LoVo,11,5FU + Oxali,36_black,36_black_left,23,NaN
LoVo,11,5FU + Oxali,36_black,36_black_left,25,253.265
LoVo,11,5FU + Oxali,36_black,36_black_left,27,418.32
LoVo,11,5FU + Oxali,37_red,37_red_right,5,NaN
LoVo,11,5FU + Oxali,37_red,37_red_right,7,NaN
LoVo,11,5FU + Oxali,37_red,37_red_right,9,NaN
LoVo,11,5FU + Oxali,37_red,37_red_right,11,188.73
LoVo,11,5FU + Oxali,37_red,37_red_right,12,NaN
LoVo,11,5FU + Oxali,37_red,37_red_right,13,208.3
LoVo,11,5FU + Oxali,37_red,37_red_right,14,NaN
LoVo,11,5FU + Oxali,37_red,37_red_right,15,189.82
LoVo,11,5FU + Oxali,37_red,37_red_right,16,NaN
LoVo,11,5FU + Oxali,37_red,37_red_right,18,286.0759405
LoVo,11,5FU + Oxali,37_red,37_red_right,19,NaN
LoVo,11,5FU + Oxali,37_red,37_red_right,20,278.054784
LoVo,11,5FU + Oxali,37_red,37_red_right,21,NaN
LoVo,11,5FU + Oxali,37_red,37_red_right,22,299.18335
LoVo,11,5FU + Oxali,37_red,37_red_right,23,NaN
LoVo,11,5FU + Oxali,37_red,37_red_right,25,350.368205
LoVo,11,5FU + Oxali,37_red,37_red_right,27,458.94
LoVo,11,5FU + Oxali,37_red,37_red_left,5,NaN
LoVo,11,5FU + Oxali,37_red,37_red_left,7,NaN
LoVo,11,5FU + Oxali,37_red,37_red_left,9,NaN
LoVo,11,5FU + Oxali,37_red,37_red_left,11,92.8
LoVo,11,5FU + Oxali,37_red,37_red_left,12,NaN
LoVo,11,5FU + Oxali,37_red,37_red_left,13,157.78
LoVo,11,5FU + Oxali,37_red,37_red_left,14,NaN
LoVo,11,5FU + Oxali,37_red,37_red_left,15,198.76
LoVo,11,5FU + Oxali,37_red,37_red_left,16,NaN
LoVo,11,5FU + Oxali,37_red,37_red_left,18,221.332068
LoVo,11,5FU + Oxali,37_red,37_red_left,19,NaN
LoVo,11,5FU + Oxali,37_red,37_red_left,20,172.34332
LoVo,11,5FU + Oxali,37_red,37_red_left,21,NaN
LoVo,11,5FU + Oxali,37_red,37_red_left,22,187.2254625
LoVo,11,5FU + Oxali,37_red,37_red_left,23,NaN
LoVo,11,5FU + Oxali,37_red,37_red_left,25,194.35445
LoVo,11,5FU + Oxali,37_red,37_red_left,27,202.37
LoVo,11,5FU + Oxali,38_white,38_white_right,5,NaN
LoVo,11,5FU + Oxali,38_white,38_white_right,7,NaN
LoVo,11,5FU + Oxali,38_white,38_white_right,9,NaN
LoVo,11,5FU + Oxali,38_white,38_white_right,11,64.83
LoVo,11,5FU + Oxali,38_white,38_white_right,12,NaN
LoVo,11,5FU + Oxali,38_white,38_white_right,13,141.59
LoVo,11,5FU + Oxali,38_white,38_white_right,14,NaN
LoVo,11,5FU + Oxali,38_white,38_white_right,15,185.11
LoVo,11,5FU + Oxali,38_white,38_white_right,16,NaN
LoVo,11,5FU + Oxali,38_white,38_white_right,18,235.4851125
LoVo,11,5FU + Oxali,38_white,38_white_right,19,NaN
LoVo,11,5FU + Oxali,38_white,38_white_right,20,270.692775
LoVo,11,5FU + Oxali,38_white,38_white_right,21,NaN
LoVo,11,5FU + Oxali,38_white,38_white_right,22,408.029976
LoVo,11,5FU + Oxali,38_white,38_white_right,23,NaN
LoVo,11,5FU + Oxali,38_white,38_white_right,25,309.5415375
LoVo,11,5FU + Oxali,38_white,38_white_right,27,401.35
LoVo,11,5FU + Oxali,38_white,38_white_left,5,NaN
LoVo,11,5FU + Oxali,38_white,38_white_left,7,NaN
LoVo,11,5FU + Oxali,38_white,38_white_left,9,NaN
LoVo,11,5FU + Oxali,38_white,38_white_left,11,157.5
LoVo,11,5FU + Oxali,38_white,38_white_left,12,NaN
LoVo,11,5FU + Oxali,38_white,38_white_left,13,200.47
LoVo,11,5FU + Oxali,38_white,38_white_left,14,NaN
LoVo,11,5FU + Oxali,38_white,38_white_left,15,133.82
LoVo,11,5FU + Oxali,38_white,38_white_left,16,NaN
LoVo,11,5FU + Oxali,38_white,38_white_left,18,143.7550735
LoVo,11,5FU + Oxali,38_white,38_white_left,19,NaN
LoVo,11,5FU + Oxali,38_white,38_white_left,20,134.505
LoVo,11,5FU + Oxali,38_white,38_white_left,21,NaN
LoVo,11,5FU + Oxali,38_white,38_white_left,22,338.80257
LoVo,11,5FU + Oxali,38_white,38_white_left,23,NaN
LoVo,11,5FU + Oxali,38_white,38_white_left,25,183.3033775
LoVo,11,5FU + Oxali,38_white,38_white_left,27,144.49
LoVo,11,5FU + Oxali,39_black,39_black_right,5,NaN
LoVo,11,5FU + Oxali,39_black,39_black_right,7,NaN
LoVo,11,5FU + Oxali,39_black,39_black_right,9,NaN
LoVo,11,5FU + Oxali,39_black,39_black_right,11,83.35
LoVo,11,5FU + Oxali,39_black,39_black_right,12,NaN
LoVo,11,5FU + Oxali,39_black,39_black_right,13,122.25
LoVo,11,5FU + Oxali,39_black,39_black_right,14,NaN
LoVo,11,5FU + Oxali,39_black,39_black_right,15,122.97
LoVo,11,5FU + Oxali,39_black,39_black_right,16,NaN
LoVo,11,5FU + Oxali,39_black,39_black_right,18,218.05646
LoVo,11,5FU + Oxali,39_black,39_black_right,19,NaN
LoVo,11,5FU + Oxali,39_black,39_black_right,20,214.98309
LoVo,11,5FU + Oxali,39_black,39_black_right,21,NaN
LoVo,11,5FU + Oxali,39_black,39_black_right,22,183.18544
LoVo,11,5FU + Oxali,39_black,39_black_right,23,NaN
LoVo,11,5FU + Oxali,39_black,39_black_right,25,261.311976
LoVo,11,5FU + Oxali,39_black,39_black_right,27,205.41
LoVo,11,5FU + Oxali,39_black,39_black_left,5,NaN
LoVo,11,5FU + Oxali,39_black,39_black_left,7,NaN
LoVo,11,5FU + Oxali,39_black,39_black_left,9,NaN
LoVo,11,5FU + Oxali,39_black,39_black_left,11,68.57
LoVo,11,5FU + Oxali,39_black,39_black_left,12,NaN
LoVo,11,5FU + Oxali,39_black,39_black_left,13,167.59
LoVo,11,5FU + Oxali,39_black,39_black_left,14,NaN
LoVo,11,5FU + Oxali,39_black,39_black_left,15,160.25
LoVo,11,5FU + Oxali,39_black,39_black_left,16,NaN
LoVo,11,5FU + Oxali,39_black,39_black_left,18,221.718303
LoVo,11,5FU + Oxali,39_black,39_black_left,19,NaN
LoVo,11,5FU + Oxali,39_black,39_black_left,20,219.283776
LoVo,11,5FU + Oxali,39_black,39_black_left,21,NaN
LoVo,11,5FU + Oxali,39_black,39_black_left,22,220.0042845
LoVo,11,5FU + Oxali,39_black,39_black_left,23,NaN
LoVo,11,5FU + Oxali,39_black,39_black_left,25,276.107846
LoVo,11,5FU + Oxali,39_black,39_black_left,27,325.93
LoVo,11,5FU + Oxali,40_red,40_red_right,5,NaN
LoVo,11,5FU + Oxali,40_red,40_red_right,7,NaN
LoVo,11,5FU + Oxali,40_red,40_red_right,9,NaN
LoVo,11,5FU + Oxali,40_red,40_red_right,11,193.24
LoVo,11,5FU + Oxali,40_red,40_red_right,12,NaN
LoVo,11,5FU + Oxali,40_red,40_red_right,13,281.63
LoVo,11,5FU + Oxali,40_red,40_red_right,14,NaN
LoVo,11,5FU + Oxali,40_red,40_red_right,15,168.6
LoVo,11,5FU + Oxali,40_red,40_red_right,16,NaN
LoVo,11,5FU + Oxali,40_red,40_red_right,18,298.433136
LoVo,11,5FU + Oxali,40_red,40_red_right,19,NaN
LoVo,11,5FU + Oxali,40_red,40_red_right,20,286.2305075
LoVo,11,5FU + Oxali,40_red,40_red_right,21,NaN
LoVo,11,5FU + Oxali,40_red,40_red_right,22,250.3872
LoVo,11,5FU + Oxali,40_red,40_red_right,23,NaN
LoVo,11,5FU + Oxali,40_red,40_red_right,25,417.048244
LoVo,11,5FU + Oxali,40_red,40_red_right,27,383.95
LoVo,11,5FU + Oxali,40_red,40_red_left,5,NaN
LoVo,11,5FU + Oxali,40_red,40_red_left,7,NaN
LoVo,11,5FU + Oxali,40_red,40_red_left,9,NaN
LoVo,11,5FU + Oxali,40_red,40_red_left,11,73.24
LoVo,11,5FU + Oxali,40_red,40_red_left,12,NaN
LoVo,11,5FU + Oxali,40_red,40_red_left,13,117.76
LoVo,11,5FU + Oxali,40_red,40_red_left,14,NaN
LoVo,11,5FU + Oxali,40_red,40_red_left,15,124.17
LoVo,11,5FU + Oxali,40_red,40_red_left,16,NaN
LoVo,11,5FU + Oxali,40_red,40_red_left,18,177.948204
LoVo,11,5FU + Oxali,40_red,40_red_left,19,NaN
LoVo,11,5FU + Oxali,40_red,40_red_left,20,259.257546
LoVo,11,5FU + Oxali,40_red,40_red_left,21,NaN
LoVo,11,5FU + Oxali,40_red,40_red_left,22,221.7324875
LoVo,11,5FU + Oxali,40_red,40_red_left,23,NaN
LoVo,11,5FU + Oxali,40_red,40_red_left,25,189.7451585
LoVo,11,5FU + Oxali,40_red,40_red_left,27,185.88
LoVo,11,5FU + Oxali,41_blue,41_blue_right,5,NaN
LoVo,11,5FU + Oxali,41_blue,41_blue_right,7,NaN
LoVo,11,5FU + Oxali,41_blue,41_blue_right,9,NaN
LoVo,11,5FU + Oxali,41_blue,41_blue_right,11,141.18
LoVo,11,5FU + Oxali,41_blue,41_blue_right,12,NaN
LoVo,11,5FU + Oxali,41_blue,41_blue_right,13,237.21
LoVo,11,5FU + Oxali,41_blue,41_blue_right,14,NaN
LoVo,11,5FU + Oxali,41_blue,41_blue_right,15,322.25
LoVo,11,5FU + Oxali,41_blue,41_blue_right,16,NaN
LoVo,11,5FU + Oxali,41_blue,41_blue_right,18,340.240908
LoVo,11,5FU + Oxali,41_blue,41_blue_right,19,NaN
LoVo,11,5FU + Oxali,41_blue,41_blue_right,20,443.137086
LoVo,11,5FU + Oxali,41_blue,41_blue_right,21,NaN
LoVo,11,5FU + Oxali,41_blue,41_blue_right,22,267.883836
LoVo,11,5FU + Oxali,41_blue,41_blue_right,23,NaN
LoVo,11,5FU + Oxali,41_blue,41_blue_right,25,382.500864
LoVo,11,5FU + Oxali,41_blue,41_blue_right,27,666.8
LoVo,11,5FU + Oxali,41_blue,41_blue_left,5,NaN
LoVo,11,5FU + Oxali,41_blue,41_blue_left,7,NaN
LoVo,11,5FU + Oxali,41_blue,41_blue_left,9,NaN
LoVo,11,5FU + Oxali,41_blue,41_blue_left,11,169.29
LoVo,11,5FU + Oxali,41_blue,41_blue_left,12,NaN
LoVo,11,5FU + Oxali,41_blue,41_blue_left,13,191.82
LoVo,11,5FU + Oxali,41_blue,41_blue_left,14,NaN
LoVo,11,5FU + Oxali,41_blue,41_blue_left,15,204.66
LoVo,11,5FU + Oxali,41_blue,41_blue_left,16,NaN
LoVo,11,5FU + Oxali,41_blue,41_blue_left,18,281.75706
LoVo,11,5FU + Oxali,41_blue,41_blue_left,19,NaN
LoVo,11,5FU + Oxali,41_blue,41_blue_left,20,261.032706
LoVo,11,5FU + Oxali,41_blue,41_blue_left,21,NaN
LoVo,11,5FU + Oxali,41_blue,41_blue_left,22,304.626826
LoVo,11,5FU + Oxali,41_blue,41_blue_left,23,NaN
LoVo,11,5FU + Oxali,41_blue,41_blue_left,25,346.827732
LoVo,11,5FU + Oxali,41_blue,41_blue_left,27,476.45
LoVo,11,5FU + Oxali,42_white,42_white_right,5,NaN
LoVo,11,5FU + Oxali,42_white,42_white_right,7,NaN
LoVo,11,5FU + Oxali,42_white,42_white_right,9,NaN
LoVo,11,5FU + Oxali,42_white,42_white_right,11,51.74
LoVo,11,5FU + Oxali,42_white,42_white_right,12,NaN
LoVo,11,5FU + Oxali,42_white,42_white_right,13,129.63
LoVo,11,5FU + Oxali,42_white,42_white_right,14,NaN
LoVo,11,5FU + Oxali,42_white,42_white_right,15,160.13
LoVo,11,5FU + Oxali,42_white,42_white_right,16,NaN
LoVo,11,5FU + Oxali,42_white,42_white_right,18,283.75692
LoVo,11,5FU + Oxali,42_white,42_white_right,19,NaN
LoVo,11,5FU + Oxali,42_white,42_white_right,20,309.652168
LoVo,11,5FU + Oxali,42_white,42_white_right,21,NaN
LoVo,11,5FU + Oxali,42_white,42_white_right,22,266.292558
LoVo,11,5FU + Oxali,42_white,42_white_right,23,NaN
LoVo,11,5FU + Oxali,42_white,42_white_right,25,389.2805325
LoVo,11,5FU + Oxali,42_white,42_white_right,27,320.52
LoVo,11,5FU + Oxali,42_white,42_white_left,5,NaN
LoVo,11,5FU + Oxali,42_white,42_white_left,7,NaN
LoVo,11,5FU + Oxali,42_white,42_white_left,9,NaN
LoVo,11,5FU + Oxali,42_white,42_white_left,11,116.77
LoVo,11,5FU + Oxali,42_white,42_white_left,12,NaN
LoVo,11,5FU + Oxali,42_white,42_white_left,13,140.65
LoVo,11,5FU + Oxali,42_white,42_white_left,14,NaN
LoVo,11,5FU + Oxali,42_white,42_white_left,15,118.77
LoVo,11,5FU + Oxali,42_white,42_white_left,16,NaN
LoVo,11,5FU + Oxali,42_white,42_white_left,18,214.0895955
LoVo,11,5FU + Oxali,42_white,42_white_left,19,NaN
LoVo,11,5FU + Oxali,42_white,42_white_left,20,196.396146
LoVo,11,5FU + Oxali,42_white,42_white_left,21,NaN
LoVo,11,5FU + Oxali,42_white,42_white_left,22,223.938589
LoVo,11,5FU + Oxali,42_white,42_white_left,23,NaN
LoVo,11,5FU + Oxali,42_white,42_white_left,25,344.328006
LoVo,11,5FU + Oxali,42_white,42_white_left,27,266.66
LoVo,11,5FU + Oxali + TL32711,43_black,43_black_right,5,NaN
LoVo,11,5FU + Oxali + TL32711,43_black,43_black_right,7,NaN
LoVo,11,5FU + Oxali + TL32711,43_black,43_black_right,9,NaN
LoVo,11,5FU + Oxali + TL32711,43_black,43_black_right,11,94.22
LoVo,11,5FU + Oxali + TL32711,43_black,43_black_right,12,NaN
LoVo,11,5FU + Oxali + TL32711,43_black,43_black_right,13,178.71
LoVo,11,5FU + Oxali + TL32711,43_black,43_black_right,14,NaN
LoVo,11,5FU + Oxali + TL32711,43_black,43_black_right,15,171.97
LoVo,11,5FU + Oxali + TL32711,43_black,43_black_right,16,NaN
LoVo,11,5FU + Oxali + TL32711,43_black,43_black_right,18,207.007409
LoVo,11,5FU + Oxali + TL32711,43_black,43_black_right,19,NaN
LoVo,11,5FU + Oxali + TL32711,43_black,43_black_right,20,94.7658285
LoVo,11,5FU + Oxali + TL32711,43_black,43_black_right,21,NaN
LoVo,11,5FU + Oxali + TL32711,43_black,43_black_right,22,83.5636145
LoVo,11,5FU + Oxali + TL32711,43_black,43_black_right,23,NaN
LoVo,11,5FU + Oxali + TL32711,43_black,43_black_right,25,117.710757
LoVo,11,5FU + Oxali + TL32711,43_black,43_black_right,27,220.65
LoVo,11,5FU + Oxali + TL32711,43_black,43_black_left,5,NaN
LoVo,11,5FU + Oxali + TL32711,43_black,43_black_left,7,NaN
LoVo,11,5FU + Oxali + TL32711,43_black,43_black_left,9,NaN
LoVo,11,5FU + Oxali + TL32711,43_black,43_black_left,11,167.46
LoVo,11,5FU + Oxali + TL32711,43_black,43_black_left,12,NaN
LoVo,11,5FU + Oxali + TL32711,43_black,43_black_left,13,248.04
LoVo,11,5FU + Oxali + TL32711,43_black,43_black_left,14,NaN
LoVo,11,5FU + Oxali + TL32711,43_black,43_black_left,15,334.35
LoVo,11,5FU + Oxali + TL32711,43_black,43_black_left,16,NaN
LoVo,11,5FU + Oxali + TL32711,43_black,43_black_left,18,363.519
LoVo,11,5FU + Oxali + TL32711,43_black,43_black_left,19,NaN
LoVo,11,5FU + Oxali + TL32711,43_black,43_black_left,20,386.942
LoVo,11,5FU + Oxali + TL32711,43_black,43_black_left,21,NaN
LoVo,11,5FU + Oxali + TL32711,43_black,43_black_left,22,297.9659485
LoVo,11,5FU + Oxali + TL32711,43_black,43_black_left,23,NaN
LoVo,11,5FU + Oxali + TL32711,43_black,43_black_left,25,361.719558
LoVo,11,5FU + Oxali + TL32711,43_black,43_black_left,27,418.1
LoVo,11,5FU + Oxali + TL32711,44_red,44_red_right,5,NaN
LoVo,11,5FU + Oxali + TL32711,44_red,44_red_right,7,NaN
LoVo,11,5FU + Oxali + TL32711,44_red,44_red_right,9,NaN
LoVo,11,5FU + Oxali + TL32711,44_red,44_red_right,11,192.85
LoVo,11,5FU + Oxali + TL32711,44_red,44_red_right,12,NaN
LoVo,11,5FU + Oxali + TL32711,44_red,44_red_right,13,212.94
LoVo,11,5FU + Oxali + TL32711,44_red,44_red_right,14,NaN
LoVo,11,5FU + Oxali + TL32711,44_red,44_red_right,15,211.57
LoVo,11,5FU + Oxali + TL32711,44_red,44_red_right,16,NaN
LoVo,11,5FU + Oxali + TL32711,44_red,44_red_right,18,221.46156
LoVo,11,5FU + Oxali + TL32711,44_red,44_red_right,19,NaN
LoVo,11,5FU + Oxali + TL32711,44_red,44_red_right,20,237.0326
LoVo,11,5FU + Oxali + TL32711,44_red,44_red_right,21,NaN
LoVo,11,5FU + Oxali + TL32711,44_red,44_red_right,22,248.77125
LoVo,11,5FU + Oxali + TL32711,44_red,44_red_right,23,NaN
LoVo,11,5FU + Oxali + TL32711,44_red,44_red_right,25,301.030912
LoVo,11,5FU + Oxali + TL32711,44_red,44_red_right,27,314.77
LoVo,11,5FU + Oxali + TL32711,44_red,44_red_left,5,NaN
LoVo,11,5FU + Oxali + TL32711,44_red,44_red_left,7,NaN
LoVo,11,5FU + Oxali + TL32711,44_red,44_red_left,9,NaN
LoVo,11,5FU + Oxali + TL32711,44_red,44_red_left,11,295.34
LoVo,11,5FU + Oxali + TL32711,44_red,44_red_left,12,NaN
LoVo,11,5FU + Oxali + TL32711,44_red,44_red_left,13,180.88
LoVo,11,5FU + Oxali + TL32711,44_red,44_red_left,14,NaN
LoVo,11,5FU + Oxali + TL32711,44_red,44_red_left,15,162.22
LoVo,11,5FU + Oxali + TL32711,44_red,44_red_left,16,NaN
LoVo,11,5FU + Oxali + TL32711,44_red,44_red_left,18,285.694048
LoVo,11,5FU + Oxali + TL32711,44_red,44_red_left,19,NaN
LoVo,11,5FU + Oxali + TL32711,44_red,44_red_left,20,307.38285
LoVo,11,5FU + Oxali + TL32711,44_red,44_red_left,21,NaN
LoVo,11,5FU + Oxali + TL32711,44_red,44_red_left,22,437.318376
LoVo,11,5FU + Oxali + TL32711,44_red,44_red_left,23,NaN
LoVo,11,5FU + Oxali + TL32711,44_red,44_red_left,25,223.4281755
LoVo,11,5FU + Oxali + TL32711,44_red,44_red_left,27,245.79
LoVo,11,5FU + Oxali + TL32711,45_blue,45_blue_right,5,NaN
LoVo,11,5FU + Oxali + TL32711,45_blue,45_blue_right,7,NaN
LoVo,11,5FU + Oxali + TL32711,45_blue,45_blue_right,9,NaN
LoVo,11,5FU + Oxali + TL32711,45_blue,45_blue_right,11,220.07
LoVo,11,5FU + Oxali + TL32711,45_blue,45_blue_right,12,NaN
LoVo,11,5FU + Oxali + TL32711,45_blue,45_blue_right,13,219.42
LoVo,11,5FU + Oxali + TL32711,45_blue,45_blue_right,14,NaN
LoVo,11,5FU + Oxali + TL32711,45_blue,45_blue_right,15,188.88
LoVo,11,5FU + Oxali + TL32711,45_blue,45_blue_right,16,NaN
LoVo,11,5FU + Oxali + TL32711,45_blue,45_blue_right,18,207.963288
LoVo,11,5FU + Oxali + TL32711,45_blue,45_blue_right,19,NaN
LoVo,11,5FU + Oxali + TL32711,45_blue,45_blue_right,20,203.1120125
LoVo,11,5FU + Oxali + TL32711,45_blue,45_blue_right,21,NaN
LoVo,11,5FU + Oxali + TL32711,45_blue,45_blue_right,22,227.688066
LoVo,11,5FU + Oxali + TL32711,45_blue,45_blue_right,23,NaN
LoVo,11,5FU + Oxali + TL32711,45_blue,45_blue_right,25,249.5295
LoVo,11,5FU + Oxali + TL32711,45_blue,45_blue_right,27,180.27
LoVo,11,5FU + Oxali + TL32711,45_blue,45_blue_left,5,NaN
LoVo,11,5FU + Oxali + TL32711,45_blue,45_blue_left,7,NaN
LoVo,11,5FU + Oxali + TL32711,45_blue,45_blue_left,9,NaN
LoVo,11,5FU + Oxali + TL32711,45_blue,45_blue_left,11,130.09
LoVo,11,5FU + Oxali + TL32711,45_blue,45_blue_left,12,NaN
LoVo,11,5FU + Oxali + TL32711,45_blue,45_blue_left,13,148.74
LoVo,11,5FU + Oxali + TL32711,45_blue,45_blue_left,14,NaN
LoVo,11,5FU + Oxali + TL32711,45_blue,45_blue_left,15,134
LoVo,11,5FU + Oxali + TL32711,45_blue,45_blue_left,16,NaN
LoVo,11,5FU + Oxali + TL32711,45_blue,45_blue_left,18,152.176896
LoVo,11,5FU + Oxali + TL32711,45_blue,45_blue_left,19,NaN
LoVo,11,5FU + Oxali + TL32711,45_blue,45_blue_left,20,215.95525
LoVo,11,5FU + Oxali + TL32711,45_blue,45_blue_left,21,NaN
LoVo,11,5FU + Oxali + TL32711,45_blue,45_blue_left,22,223.16877
LoVo,11,5FU + Oxali + TL32711,45_blue,45_blue_left,23,NaN
LoVo,11,5FU + Oxali + TL32711,45_blue,45_blue_left,25,145.26054
LoVo,11,5FU + Oxali + TL32711,45_blue,45_blue_left,27,219.81
LoVo,11,5FU + Oxali + TL32711,46_white,46_white_right,5,NaN
LoVo,11,5FU + Oxali + TL32711,46_white,46_white_right,7,NaN
LoVo,11,5FU + Oxali + TL32711,46_white,46_white_right,9,NaN
LoVo,11,5FU + Oxali + TL32711,46_white,46_white_right,11,188.43
LoVo,11,5FU + Oxali + TL32711,46_white,46_white_right,12,NaN
LoVo,11,5FU + Oxali + TL32711,46_white,46_white_right,13,177.11
LoVo,11,5FU + Oxali + TL32711,46_white,46_white_right,14,NaN
LoVo,11,5FU + Oxali + TL32711,46_white,46_white_right,15,220.85
LoVo,11,5FU + Oxali + TL32711,46_white,46_white_right,16,NaN
LoVo,11,5FU + Oxali + TL32711,46_white,46_white_right,18,236.4266615
LoVo,11,5FU + Oxali + TL32711,46_white,46_white_right,19,NaN
LoVo,11,5FU + Oxali + TL32711,46_white,46_white_right,20,248.435154
LoVo,11,5FU + Oxali + TL32711,46_white,46_white_right,21,NaN
LoVo,11,5FU + Oxali + TL32711,46_white,46_white_right,22,223.221152
LoVo,11,5FU + Oxali + TL32711,46_white,46_white_right,23,NaN
LoVo,11,5FU + Oxali + TL32711,46_white,46_white_right,25,173.2266
LoVo,11,5FU + Oxali + TL32711,46_white,46_white_right,27,328.87
LoVo,11,5FU + Oxali + TL32711,46_white,46_white_left,5,NaN
LoVo,11,5FU + Oxali + TL32711,46_white,46_white_left,7,NaN
LoVo,11,5FU + Oxali + TL32711,46_white,46_white_left,9,NaN
LoVo,11,5FU + Oxali + TL32711,46_white,46_white_left,11,159.63
LoVo,11,5FU + Oxali + TL32711,46_white,46_white_left,12,NaN
LoVo,11,5FU + Oxali + TL32711,46_white,46_white_left,13,149.91
LoVo,11,5FU + Oxali + TL32711,46_white,46_white_left,14,NaN
LoVo,11,5FU + Oxali + TL32711,46_white,46_white_left,15,122.87
LoVo,11,5FU + Oxali + TL32711,46_white,46_white_left,16,NaN
LoVo,11,5FU + Oxali + TL32711,46_white,46_white_left,18,207.6833475
LoVo,11,5FU + Oxali + TL32711,46_white,46_white_left,19,NaN
LoVo,11,5FU + Oxali + TL32711,46_white,46_white_left,20,192.899916
LoVo,11,5FU + Oxali + TL32711,46_white,46_white_left,21,NaN
LoVo,11,5FU + Oxali + TL32711,46_white,46_white_left,22,182.751392
LoVo,11,5FU + Oxali + TL32711,46_white,46_white_left,23,NaN
LoVo,11,5FU + Oxali + TL32711,46_white,46_white_left,25,190.197896
LoVo,11,5FU + Oxali + TL32711,46_white,46_white_left,27,353.4
LoVo,11,5FU + Oxali + TL32711,47_black,47_black_right,5,NaN
LoVo,11,5FU + Oxali + TL32711,47_black,47_black_right,7,NaN
LoVo,11,5FU + Oxali + TL32711,47_black,47_black_right,9,NaN
LoVo,11,5FU + Oxali + TL32711,47_black,47_black_right,11,79.82
LoVo,11,5FU + Oxali + TL32711,47_black,47_black_right,12,NaN
LoVo,11,5FU + Oxali + TL32711,47_black,47_black_right,13,131.56
LoVo,11,5FU + Oxali + TL32711,47_black,47_black_right,14,NaN
LoVo,11,5FU + Oxali + TL32711,47_black,47_black_right,15,123.26
LoVo,11,5FU + Oxali + TL32711,47_black,47_black_right,16,NaN
LoVo,11,5FU + Oxali + TL32711,47_black,47_black_right,18,121.93659
LoVo,11,5FU + Oxali + TL32711,47_black,47_black_right,19,NaN
LoVo,11,5FU + Oxali + TL32711,47_black,47_black_right,20,153.77648
LoVo,11,5FU + Oxali + TL32711,47_black,47_black_right,21,NaN
LoVo,11,5FU + Oxali + TL32711,47_black,47_black_right,22,169.604611
LoVo,11,5FU + Oxali + TL32711,47_black,47_black_right,23,NaN
LoVo,11,5FU + Oxali + TL32711,47_black,47_black_right,25,359.0787915
LoVo,11,5FU + Oxali + TL32711,47_black,47_black_right,27,166.55
LoVo,11,5FU + Oxali + TL32711,47_black,47_black_left,5,NaN
LoVo,11,5FU + Oxali + TL32711,47_black,47_black_left,7,NaN
LoVo,11,5FU + Oxali + TL32711,47_black,47_black_left,9,NaN
LoVo,11,5FU + Oxali + TL32711,47_black,47_black_left,11,172.37
LoVo,11,5FU + Oxali + TL32711,47_black,47_black_left,12,NaN
LoVo,11,5FU + Oxali + TL32711,47_black,47_black_left,13,182.33
LoVo,11,5FU + Oxali + TL32711,47_black,47_black_left,14,NaN
LoVo,11,5FU + Oxali + TL32711,47_black,47_black_left,15,151.56
LoVo,11,5FU + Oxali + TL32711,47_black,47_black_left,16,NaN
LoVo,11,5FU + Oxali + TL32711,47_black,47_black_left,18,195.608205
LoVo,11,5FU + Oxali + TL32711,47_black,47_black_left,19,NaN
LoVo,11,5FU + Oxali + TL32711,47_black,47_black_left,20,231.1801625
LoVo,11,5FU + Oxali + TL32711,47_black,47_black_left,21,NaN
LoVo,11,5FU + Oxali + TL32711,47_black,47_black_left,22,272.804462
LoVo,11,5FU + Oxali + TL32711,47_black,47_black_left,23,NaN
LoVo,11,5FU + Oxali + TL32711,47_black,47_black_left,25,235.576945
LoVo,11,5FU + Oxali + TL32711,47_black,47_black_left,27,365.88
LoVo,11,5FU + Oxali + TL32711,48_red,48_red_right,5,NaN
LoVo,11,5FU + Oxali + TL32711,48_red,48_red_right,7,NaN
LoVo,11,5FU + Oxali + TL32711,48_red,48_red_right,9,NaN
LoVo,11,5FU + Oxali + TL32711,48_red,48_red_right,11,240.13
LoVo,11,5FU + Oxali + TL32711,48_red,48_red_right,12,NaN
LoVo,11,5FU + Oxali + TL32711,48_red,48_red_right,13,268.42
LoVo,11,5FU + Oxali + TL32711,48_red,48_red_right,14,NaN
LoVo,11,5FU + Oxali + TL32711,48_red,48_red_right,15,219.07
LoVo,11,5FU + Oxali + TL32711,48_red,48_red_right,16,NaN
LoVo,11,5FU + Oxali + TL32711,48_red,48_red_right,18,242.540913
LoVo,11,5FU + Oxali + TL32711,48_red,48_red_right,19,NaN
LoVo,11,5FU + Oxali + TL32711,48_red,48_red_right,20,266.873582
LoVo,11,5FU + Oxali + TL32711,48_red,48_red_right,21,NaN
LoVo,11,5FU + Oxali + TL32711,48_red,48_red_right,22,287.781723
LoVo,11,5FU + Oxali + TL32711,48_red,48_red_right,23,NaN
LoVo,11,5FU + Oxali + TL32711,48_red,48_red_right,25,280.545526
LoVo,11,5FU + Oxali + TL32711,48_red,48_red_right,27,289.24
LoVo,11,5FU + Oxali + TL32711,48_red,48_red_left,5,NaN
LoVo,11,5FU + Oxali + TL32711,48_red,48_red_left,7,NaN
LoVo,11,5FU + Oxali + TL32711,48_red,48_red_left,9,NaN
LoVo,11,5FU + Oxali + TL32711,48_red,48_red_left,11,104.73
LoVo,11,5FU + Oxali + TL32711,48_red,48_red_left,12,NaN
LoVo,11,5FU + Oxali + TL32711,48_red,48_red_left,13,78.47
LoVo,11,5FU + Oxali + TL32711,48_red,48_red_left,14,NaN
LoVo,11,5FU + Oxali + TL32711,48_red,48_red_left,15,139.02
LoVo,11,5FU + Oxali + TL32711,48_red,48_red_left,16,NaN
LoVo,11,5FU + Oxali + TL32711,48_red,48_red_left,18,167.124104
LoVo,11,5FU + Oxali + TL32711,48_red,48_red_left,19,NaN
LoVo,11,5FU + Oxali + TL32711,48_red,48_red_left,20,156.210156
LoVo,11,5FU + Oxali + TL32711,48_red,48_red_left,21,NaN
LoVo,11,5FU + Oxali + TL32711,48_red,48_red_left,22,250.123109
LoVo,11,5FU + Oxali + TL32711,48_red,48_red_left,23,NaN
LoVo,11,5FU + Oxali + TL32711,48_red,48_red_left,25,318.8608335
LoVo,11,5FU + Oxali + TL32711,48_red,48_red_left,27,311.21
LoVo,11,5FU + Oxali + TL32711,49_white,49_white_right,5,NaN
LoVo,11,5FU + Oxali + TL32711,49_white,49_white_right,7,NaN
LoVo,11,5FU + Oxali + TL32711,49_white,49_white_right,9,NaN
LoVo,11,5FU + Oxali + TL32711,49_white,49_white_right,11,135.33
LoVo,11,5FU + Oxali + TL32711,49_white,49_white_right,12,NaN
LoVo,11,5FU + Oxali + TL32711,49_white,49_white_right,13,351.29
LoVo,11,5FU + Oxali + TL32711,49_white,49_white_right,14,NaN
LoVo,11,5FU + Oxali + TL32711,49_white,49_white_right,15,230.9
LoVo,11,5FU + Oxali + TL32711,49_white,49_white_right,16,NaN
LoVo,11,5FU + Oxali + TL32711,49_white,49_white_right,18,200.1533625
LoVo,11,5FU + Oxali + TL32711,49_white,49_white_right,19,NaN
LoVo,11,5FU + Oxali + TL32711,49_white,49_white_right,20,220.7538935
LoVo,11,5FU + Oxali + TL32711,49_white,49_white_right,21,NaN
LoVo,11,5FU + Oxali + TL32711,49_white,49_white_right,22,312.8040585
LoVo,11,5FU + Oxali + TL32711,49_white,49_white_right,23,NaN
LoVo,11,5FU + Oxali + TL32711,49_white,49_white_right,25,342.171762
LoVo,11,5FU + Oxali + TL32711,49_white,49_white_right,27,411.75
LoVo,11,5FU + Oxali + TL32711,49_white,49_white_left,5,NaN
LoVo,11,5FU + Oxali + TL32711,49_white,49_white_left,7,NaN
LoVo,11,5FU + Oxali + TL32711,49_white,49_white_left,9,NaN
LoVo,11,5FU + Oxali + TL32711,49_white,49_white_left,11,107.58
LoVo,11,5FU + Oxali + TL32711,49_white,49_white_left,12,NaN
LoVo,11,5FU + Oxali + TL32711,49_white,49_white_left,13,171.06
LoVo,11,5FU + Oxali + TL32711,49_white,49_white_left,14,NaN
LoVo,11,5FU + Oxali + TL32711,49_white,49_white_left,15,120.59
LoVo,11,5FU + Oxali + TL32711,49_white,49_white_left,16,NaN
LoVo,11,5FU + Oxali + TL32711,49_white,49_white_left,18,141.3421875
LoVo,11,5FU + Oxali + TL32711,49_white,49_white_left,19,NaN
LoVo,11,5FU + Oxali + TL32711,49_white,49_white_left,20,145.256508
LoVo,11,5FU + Oxali + TL32711,49_white,49_white_left,21,NaN
LoVo,11,5FU + Oxali + TL32711,49_white,49_white_left,22,151.78112
LoVo,11,5FU + Oxali + TL32711,49_white,49_white_left,23,NaN
LoVo,11,5FU + Oxali + TL32711,49_white,49_white_left,25,228.888408
LoVo,11,5FU + Oxali + TL32711,49_white,49_white_left,27,191.48
